1ano/2 semestre/LSD/Aula6/Parte1/simulation/qsim/ShiftRegister_Demo.msim.vcd
$comment
	File created using the following command:
		vcd file ShiftRegister_Demo.msim.vcd -direction
$end
$date
	Wed Mar 29 10:49:11 2023
$end
$version
	ModelSim Version 2020.1
$end
$timescale
	1ps
$end

$scope module shiftregister4_vhd_vec_tst $end
$var wire 1 ! clk $end
$var wire 1 " dataout [3] $end
$var wire 1 # dataout [2] $end
$var wire 1 $ dataout [1] $end
$var wire 1 % dataout [0] $end
$var wire 1 & sin $end

$scope module i1 $end
$var wire 1 ' gnd $end
$var wire 1 ( vcc $end
$var wire 1 ) unknown $end
$var wire 1 * devoe $end
$var wire 1 + devclrn $end
$var wire 1 , devpor $end
$var wire 1 - ww_devoe $end
$var wire 1 . ww_devclrn $end
$var wire 1 / ww_devpor $end
$var wire 1 0 ww_clk $end
$var wire 1 1 ww_sin $end
$var wire 1 2 ww_dataout [3] $end
$var wire 1 3 ww_dataout [2] $end
$var wire 1 4 ww_dataout [1] $end
$var wire 1 5 ww_dataout [0] $end
$var wire 1 6 \dataout[0]~output_o\ $end
$var wire 1 7 \dataout[1]~output_o\ $end
$var wire 1 8 \dataout[2]~output_o\ $end
$var wire 1 9 \dataout[3]~output_o\ $end
$var wire 1 : \clk~input_o\ $end
$var wire 1 ; \sin~input_o\ $end
$var wire 1 < aux [3] $end
$var wire 1 = aux [2] $end
$var wire 1 > aux [1] $end
$var wire 1 ? aux [0] $end
$upscope $end
$upscope $end
$enddefinitions $end
#0
$dumpvars
0!
1&
0'
1(
x)
1*
1+
1,
1-
1.
1/
00
11
06
07
08
09
0:
1;
02
03
04
05
0<
0=
0>
0?
0"
0#
0$
0%
$end
#20000
1!
10
1:
1?
16
15
1%
#25000
0&
01
0;
#40000
0!
00
0:
#50000
1&
11
1;
#60000
1!
10
1:
1>
17
14
1$
#75000
0&
01
0;
#80000
0!
00
0:
#100000
1!
1&
10
11
1;
1:
0?
1=
18
06
13
05
0%
1#
#120000
0!
00
0:
#125000
0&
01
0;
#140000
1!
10
1:
0>
1<
19
07
12
04
0$
1"
#150000
1&
11
1;
#160000
0!
00
0:
#175000
0&
01
0;
#180000
1!
10
1:
0=
08
03
0#
#200000
0!
1&
00
11
1;
0:
#220000
1!
10
1:
1?
0<
09
16
02
15
1%
0"
#225000
0&
01
0;
#240000
0!
00
0:
#250000
1&
11
1;
#260000
1!
10
1:
1>
17
14
1$
#275000
0&
01
0;
#280000
0!
00
0:
#300000
1!
1&
10
11
1;
1:
0?
1=
18
06
13
05
0%
1#
#320000
0!
00
0:
#325000
0&
01
0;
#340000
1!
10
1:
0>
1<
19
07
12
04
0$
1"
#350000
1&
11
1;
#360000
0!
00
0:
#375000
0&
01
0;
#380000
1!
10
1:
0=
08
03
0#
#400000
0!
1&
00
11
1;
0:
#420000
1!
10
1:
1?
0<
09
16
02
15
1%
0"
#425000
0&
01
0;
#440000
0!
00
0:
#450000
1&
11
1;
#460000
1!
10
1:
1>
17
14
1$
#475000
0&
01
0;
#480000
0!
00
0:
#500000
1!
1&
10
11
1;
1:
0?
1=
18
06
13
05
0%
1#
#520000
0!
00
0:
#525000
0&
01
0;
#540000
1!
10
1:
0>
1<
19
07
12
04
0$
1"
#550000
1&
11
1;
#560000
0!
00
0:
#575000
0&
01
0;
#580000
1!
10
1:
0=
08
03
0#
#600000
0!
1&
00
11
1;
0:
#620000
1!
10
1:
1?
0<
09
16
02
15
1%
0"
#625000
0&
01
0;
#640000
0!
00
0:
#650000
1&
11
1;
#660000
1!
10
1:
1>
17
14
1$
#675000
0&
01
0;
#680000
0!
00
0:
#700000
1!
1&
10
11
1;
1:
0?
1=
18
06
13
05
0%
1#
#720000
0!
00
0:
#725000
0&
01
0;
#740000
1!
10
1:
0>
1<
19
07
12
04
0$
1"
#750000
1&
11
1;
#760000
0!
00
0:
#775000
0&
01
0;
#780000
1!
10
1:
0=
08
03
0#
#800000
0!
1&
00
11
1;
0:
#820000
1!
10
1:
1?
0<
09
16
02
15
1%
0"
#825000
0&
01
0;
#840000
0!
00
0:
#850000
1&
11
1;
#860000
1!
10
1:
1>
17
14
1$
#875000
0&
01
0;
#880000
0!
00
0:
#900000
1!
1&
10
11
1;
1:
0?
1=
18
06
13
05
0%
1#
#920000
0!
00
0:
#925000
0&
01
0;
#940000
1!
10
1:
0>
1<
19
07
12
04
0$
1"
#950000
1&
11
1;
#960000
0!
00
0:
#975000
0&
01
0;
#980000
1!
10
1:
0=
08
03
0#
