1ano/2 semestre/LSD/Aula4/Parte4/simulation/qsim/FreqDivider_Demo.msim.vcd
$comment
	File created using the following command:
		vcd file FreqDivider_Demo.msim.vcd -direction
$end
$date
	Sat Jun 10 17:07:35 2023
$end
$version
	ModelSim Version 2020.1
$end
$timescale
	1ps
$end

$scope module freqdivider_vhd_vec_tst $end
$var wire 1 ! clkIn $end
$var wire 1 " clkOut $end
$var wire 1 # k [31] $end
$var wire 1 $ k [30] $end
$var wire 1 % k [29] $end
$var wire 1 & k [28] $end
$var wire 1 ' k [27] $end
$var wire 1 ( k [26] $end
$var wire 1 ) k [25] $end
$var wire 1 * k [24] $end
$var wire 1 + k [23] $end
$var wire 1 , k [22] $end
$var wire 1 - k [21] $end
$var wire 1 . k [20] $end
$var wire 1 / k [19] $end
$var wire 1 0 k [18] $end
$var wire 1 1 k [17] $end
$var wire 1 2 k [16] $end
$var wire 1 3 k [15] $end
$var wire 1 4 k [14] $end
$var wire 1 5 k [13] $end
$var wire 1 6 k [12] $end
$var wire 1 7 k [11] $end
$var wire 1 8 k [10] $end
$var wire 1 9 k [9] $end
$var wire 1 : k [8] $end
$var wire 1 ; k [7] $end
$var wire 1 < k [6] $end
$var wire 1 = k [5] $end
$var wire 1 > k [4] $end
$var wire 1 ? k [3] $end
$var wire 1 @ k [2] $end
$var wire 1 A k [1] $end
$var wire 1 B k [0] $end

$scope module i1 $end
$var wire 1 C gnd $end
$var wire 1 D vcc $end
$var wire 1 E unknown $end
$var wire 1 F devoe $end
$var wire 1 G devclrn $end
$var wire 1 H devpor $end
$var wire 1 I ww_devoe $end
$var wire 1 J ww_devclrn $end
$var wire 1 K ww_devpor $end
$var wire 1 L ww_clkIn $end
$var wire 1 M ww_k [31] $end
$var wire 1 N ww_k [30] $end
$var wire 1 O ww_k [29] $end
$var wire 1 P ww_k [28] $end
$var wire 1 Q ww_k [27] $end
$var wire 1 R ww_k [26] $end
$var wire 1 S ww_k [25] $end
$var wire 1 T ww_k [24] $end
$var wire 1 U ww_k [23] $end
$var wire 1 V ww_k [22] $end
$var wire 1 W ww_k [21] $end
$var wire 1 X ww_k [20] $end
$var wire 1 Y ww_k [19] $end
$var wire 1 Z ww_k [18] $end
$var wire 1 [ ww_k [17] $end
$var wire 1 \ ww_k [16] $end
$var wire 1 ] ww_k [15] $end
$var wire 1 ^ ww_k [14] $end
$var wire 1 _ ww_k [13] $end
$var wire 1 ` ww_k [12] $end
$var wire 1 a ww_k [11] $end
$var wire 1 b ww_k [10] $end
$var wire 1 c ww_k [9] $end
$var wire 1 d ww_k [8] $end
$var wire 1 e ww_k [7] $end
$var wire 1 f ww_k [6] $end
$var wire 1 g ww_k [5] $end
$var wire 1 h ww_k [4] $end
$var wire 1 i ww_k [3] $end
$var wire 1 j ww_k [2] $end
$var wire 1 k ww_k [1] $end
$var wire 1 l ww_k [0] $end
$var wire 1 m ww_clkOut $end
$var wire 1 n \clkOut~output_o\ $end
$var wire 1 o \clkIn~input_o\ $end
$var wire 1 p \k[1]~input_o\ $end
$var wire 1 q \Add2~0_combout\ $end
$var wire 1 r \k[2]~input_o\ $end
$var wire 1 s \Add2~1\ $end
$var wire 1 t \Add2~2_combout\ $end
$var wire 1 u \s_counter[0]~32_combout\ $end
$var wire 1 v \k[0]~input_o\ $end
$var wire 1 w \Add1~1\ $end
$var wire 1 x \Add1~2_combout\ $end
$var wire 1 y \Add1~0_combout\ $end
$var wire 1 z \Equal0~0_combout\ $end
$var wire 1 { \s_counter[1]~35\ $end
$var wire 1 | \s_counter[2]~36_combout\ $end
$var wire 1 } \s_counter[2]~37\ $end
$var wire 1 ~ \s_counter[3]~38_combout\ $end
$var wire 1 !! \k[3]~input_o\ $end
$var wire 1 "! \Add1~3\ $end
$var wire 1 #! \Add1~5\ $end
$var wire 1 $! \Add1~6_combout\ $end
$var wire 1 %! \Add1~4_combout\ $end
$var wire 1 &! \Equal0~1_combout\ $end
$var wire 1 '! \s_counter[3]~39\ $end
$var wire 1 (! \s_counter[4]~40_combout\ $end
$var wire 1 )! \s_counter[4]~41\ $end
$var wire 1 *! \s_counter[5]~42_combout\ $end
$var wire 1 +! \k[5]~input_o\ $end
$var wire 1 ,! \k[4]~input_o\ $end
$var wire 1 -! \Add1~7\ $end
$var wire 1 .! \Add1~9\ $end
$var wire 1 /! \Add1~10_combout\ $end
$var wire 1 0! \Add1~8_combout\ $end
$var wire 1 1! \Equal0~2_combout\ $end
$var wire 1 2! \s_counter[5]~43\ $end
$var wire 1 3! \s_counter[6]~44_combout\ $end
$var wire 1 4! \s_counter[6]~45\ $end
$var wire 1 5! \s_counter[7]~46_combout\ $end
$var wire 1 6! \k[7]~input_o\ $end
$var wire 1 7! \k[6]~input_o\ $end
$var wire 1 8! \Add1~11\ $end
$var wire 1 9! \Add1~13\ $end
$var wire 1 :! \Add1~14_combout\ $end
$var wire 1 ;! \Add1~12_combout\ $end
$var wire 1 <! \Equal0~3_combout\ $end
$var wire 1 =! \Equal0~4_combout\ $end
$var wire 1 >! \s_counter[7]~47\ $end
$var wire 1 ?! \s_counter[8]~48_combout\ $end
$var wire 1 @! \s_counter[8]~49\ $end
$var wire 1 A! \s_counter[9]~50_combout\ $end
$var wire 1 B! \k[9]~input_o\ $end
$var wire 1 C! \k[8]~input_o\ $end
$var wire 1 D! \Add1~15\ $end
$var wire 1 E! \Add1~17\ $end
$var wire 1 F! \Add1~18_combout\ $end
$var wire 1 G! \Add1~16_combout\ $end
$var wire 1 H! \Equal0~5_combout\ $end
$var wire 1 I! \s_counter[9]~51\ $end
$var wire 1 J! \s_counter[10]~52_combout\ $end
$var wire 1 K! \s_counter[10]~53\ $end
$var wire 1 L! \s_counter[11]~54_combout\ $end
$var wire 1 M! \k[11]~input_o\ $end
$var wire 1 N! \k[10]~input_o\ $end
$var wire 1 O! \Add1~19\ $end
$var wire 1 P! \Add1~21\ $end
$var wire 1 Q! \Add1~22_combout\ $end
$var wire 1 R! \Add1~20_combout\ $end
$var wire 1 S! \Equal0~6_combout\ $end
$var wire 1 T! \s_counter[11]~55\ $end
$var wire 1 U! \s_counter[12]~56_combout\ $end
$var wire 1 V! \s_counter[12]~57\ $end
$var wire 1 W! \s_counter[13]~58_combout\ $end
$var wire 1 X! \k[13]~input_o\ $end
$var wire 1 Y! \k[12]~input_o\ $end
$var wire 1 Z! \Add1~23\ $end
$var wire 1 [! \Add1~25\ $end
$var wire 1 \! \Add1~26_combout\ $end
$var wire 1 ]! \Add1~24_combout\ $end
$var wire 1 ^! \Equal0~7_combout\ $end
$var wire 1 _! \s_counter[13]~59\ $end
$var wire 1 `! \s_counter[14]~60_combout\ $end
$var wire 1 a! \s_counter[14]~61\ $end
$var wire 1 b! \s_counter[15]~62_combout\ $end
$var wire 1 c! \k[15]~input_o\ $end
$var wire 1 d! \k[14]~input_o\ $end
$var wire 1 e! \Add1~27\ $end
$var wire 1 f! \Add1~29\ $end
$var wire 1 g! \Add1~30_combout\ $end
$var wire 1 h! \Add1~28_combout\ $end
$var wire 1 i! \Equal0~8_combout\ $end
$var wire 1 j! \Equal0~9_combout\ $end
$var wire 1 k! \s_counter[15]~63\ $end
$var wire 1 l! \s_counter[16]~64_combout\ $end
$var wire 1 m! \s_counter[16]~65\ $end
$var wire 1 n! \s_counter[17]~66_combout\ $end
$var wire 1 o! \k[17]~input_o\ $end
$var wire 1 p! \k[16]~input_o\ $end
$var wire 1 q! \Add1~31\ $end
$var wire 1 r! \Add1~33\ $end
$var wire 1 s! \Add1~34_combout\ $end
$var wire 1 t! \Add1~32_combout\ $end
$var wire 1 u! \Equal0~10_combout\ $end
$var wire 1 v! \s_counter[17]~67\ $end
$var wire 1 w! \s_counter[18]~68_combout\ $end
$var wire 1 x! \s_counter[18]~69\ $end
$var wire 1 y! \s_counter[19]~70_combout\ $end
$var wire 1 z! \k[19]~input_o\ $end
$var wire 1 {! \k[18]~input_o\ $end
$var wire 1 |! \Add1~35\ $end
$var wire 1 }! \Add1~37\ $end
$var wire 1 ~! \Add1~38_combout\ $end
$var wire 1 !" \Add1~36_combout\ $end
$var wire 1 "" \Equal0~11_combout\ $end
$var wire 1 #" \s_counter[19]~71\ $end
$var wire 1 $" \s_counter[20]~72_combout\ $end
$var wire 1 %" \s_counter[20]~73\ $end
$var wire 1 &" \s_counter[21]~74_combout\ $end
$var wire 1 '" \k[21]~input_o\ $end
$var wire 1 (" \k[20]~input_o\ $end
$var wire 1 )" \Add1~39\ $end
$var wire 1 *" \Add1~41\ $end
$var wire 1 +" \Add1~42_combout\ $end
$var wire 1 ," \Add1~40_combout\ $end
$var wire 1 -" \Equal0~12_combout\ $end
$var wire 1 ." \s_counter[21]~75\ $end
$var wire 1 /" \s_counter[22]~76_combout\ $end
$var wire 1 0" \s_counter[22]~77\ $end
$var wire 1 1" \s_counter[23]~78_combout\ $end
$var wire 1 2" \k[23]~input_o\ $end
$var wire 1 3" \k[22]~input_o\ $end
$var wire 1 4" \Add1~43\ $end
$var wire 1 5" \Add1~45\ $end
$var wire 1 6" \Add1~46_combout\ $end
$var wire 1 7" \Add1~44_combout\ $end
$var wire 1 8" \Equal0~13_combout\ $end
$var wire 1 9" \Equal0~14_combout\ $end
$var wire 1 :" \s_counter[23]~79\ $end
$var wire 1 ;" \s_counter[24]~80_combout\ $end
$var wire 1 <" \s_counter[24]~81\ $end
$var wire 1 =" \s_counter[25]~82_combout\ $end
$var wire 1 >" \k[25]~input_o\ $end
$var wire 1 ?" \k[24]~input_o\ $end
$var wire 1 @" \Add1~47\ $end
$var wire 1 A" \Add1~49\ $end
$var wire 1 B" \Add1~50_combout\ $end
$var wire 1 C" \Add1~48_combout\ $end
$var wire 1 D" \Equal0~15_combout\ $end
$var wire 1 E" \s_counter[25]~83\ $end
$var wire 1 F" \s_counter[26]~84_combout\ $end
$var wire 1 G" \s_counter[26]~85\ $end
$var wire 1 H" \s_counter[27]~86_combout\ $end
$var wire 1 I" \k[27]~input_o\ $end
$var wire 1 J" \k[26]~input_o\ $end
$var wire 1 K" \Add1~51\ $end
$var wire 1 L" \Add1~53\ $end
$var wire 1 M" \Add1~54_combout\ $end
$var wire 1 N" \Add1~52_combout\ $end
$var wire 1 O" \Equal0~16_combout\ $end
$var wire 1 P" \s_counter[27]~87\ $end
$var wire 1 Q" \s_counter[28]~88_combout\ $end
$var wire 1 R" \s_counter[28]~89\ $end
$var wire 1 S" \s_counter[29]~90_combout\ $end
$var wire 1 T" \k[29]~input_o\ $end
$var wire 1 U" \k[28]~input_o\ $end
$var wire 1 V" \Add1~55\ $end
$var wire 1 W" \Add1~57\ $end
$var wire 1 X" \Add1~58_combout\ $end
$var wire 1 Y" \Add1~56_combout\ $end
$var wire 1 Z" \Equal0~17_combout\ $end
$var wire 1 [" \s_counter[29]~91\ $end
$var wire 1 \" \s_counter[30]~92_combout\ $end
$var wire 1 ]" \s_counter[30]~93\ $end
$var wire 1 ^" \s_counter[31]~94_combout\ $end
$var wire 1 _" \k[31]~input_o\ $end
$var wire 1 `" \k[30]~input_o\ $end
$var wire 1 a" \Add1~59\ $end
$var wire 1 b" \Add1~61\ $end
$var wire 1 c" \Add1~62_combout\ $end
$var wire 1 d" \Add1~60_combout\ $end
$var wire 1 e" \Equal0~18_combout\ $end
$var wire 1 f" \Equal0~19_combout\ $end
$var wire 1 g" \Equal0~20_combout\ $end
$var wire 1 h" \s_counter[0]~33\ $end
$var wire 1 i" \s_counter[1]~34_combout\ $end
$var wire 1 j" \clkOut~0_combout\ $end
$var wire 1 k" \Add2~3\ $end
$var wire 1 l" \Add2~4_combout\ $end
$var wire 1 m" \Add2~5\ $end
$var wire 1 n" \Add2~6_combout\ $end
$var wire 1 o" \clkOut~1_combout\ $end
$var wire 1 p" \Add2~7\ $end
$var wire 1 q" \Add2~8_combout\ $end
$var wire 1 r" \Add2~9\ $end
$var wire 1 s" \Add2~10_combout\ $end
$var wire 1 t" \clkOut~2_combout\ $end
$var wire 1 u" \Add2~11\ $end
$var wire 1 v" \Add2~12_combout\ $end
$var wire 1 w" \Add2~13\ $end
$var wire 1 x" \Add2~14_combout\ $end
$var wire 1 y" \clkOut~3_combout\ $end
$var wire 1 z" \clkOut~4_combout\ $end
$var wire 1 {" \Add2~15\ $end
$var wire 1 |" \Add2~16_combout\ $end
$var wire 1 }" \Add2~17\ $end
$var wire 1 ~" \Add2~18_combout\ $end
$var wire 1 !# \clkOut~5_combout\ $end
$var wire 1 "# \Add2~19\ $end
$var wire 1 ## \Add2~20_combout\ $end
$var wire 1 $# \Add2~21\ $end
$var wire 1 %# \Add2~22_combout\ $end
$var wire 1 &# \clkOut~6_combout\ $end
$var wire 1 '# \Add2~23\ $end
$var wire 1 (# \Add2~24_combout\ $end
$var wire 1 )# \Add2~25\ $end
$var wire 1 *# \Add2~26_combout\ $end
$var wire 1 +# \clkOut~7_combout\ $end
$var wire 1 ,# \Add2~27\ $end
$var wire 1 -# \Add2~28_combout\ $end
$var wire 1 .# \Add2~29\ $end
$var wire 1 /# \Add2~30_combout\ $end
$var wire 1 0# \clkOut~8_combout\ $end
$var wire 1 1# \clkOut~9_combout\ $end
$var wire 1 2# \Add2~31\ $end
$var wire 1 3# \Add2~32_combout\ $end
$var wire 1 4# \Add2~33\ $end
$var wire 1 5# \Add2~34_combout\ $end
$var wire 1 6# \clkOut~10_combout\ $end
$var wire 1 7# \Add2~35\ $end
$var wire 1 8# \Add2~36_combout\ $end
$var wire 1 9# \Add2~37\ $end
$var wire 1 :# \Add2~38_combout\ $end
$var wire 1 ;# \clkOut~11_combout\ $end
$var wire 1 <# \Add2~39\ $end
$var wire 1 =# \Add2~40_combout\ $end
$var wire 1 ># \Add2~41\ $end
$var wire 1 ?# \Add2~42_combout\ $end
$var wire 1 @# \clkOut~12_combout\ $end
$var wire 1 A# \Add2~43\ $end
$var wire 1 B# \Add2~44_combout\ $end
$var wire 1 C# \Add2~45\ $end
$var wire 1 D# \Add2~46_combout\ $end
$var wire 1 E# \clkOut~13_combout\ $end
$var wire 1 F# \clkOut~14_combout\ $end
$var wire 1 G# \Add2~47\ $end
$var wire 1 H# \Add2~48_combout\ $end
$var wire 1 I# \Add2~49\ $end
$var wire 1 J# \Add2~50_combout\ $end
$var wire 1 K# \clkOut~15_combout\ $end
$var wire 1 L# \Add2~51\ $end
$var wire 1 M# \Add2~52_combout\ $end
$var wire 1 N# \Add2~53\ $end
$var wire 1 O# \Add2~54_combout\ $end
$var wire 1 P# \clkOut~16_combout\ $end
$var wire 1 Q# \Add2~55\ $end
$var wire 1 R# \Add2~56_combout\ $end
$var wire 1 S# \Add2~57\ $end
$var wire 1 T# \Add2~58_combout\ $end
$var wire 1 U# \clkOut~17_combout\ $end
$var wire 1 V# \Add2~59\ $end
$var wire 1 W# \Add2~60_combout\ $end
$var wire 1 X# \Add2~61\ $end
$var wire 1 Y# \Add2~62_combout\ $end
$var wire 1 Z# \clkOut~18_combout\ $end
$var wire 1 [# \clkOut~19_combout\ $end
$var wire 1 \# \clkOut~20_combout\ $end
$var wire 1 ]# \clkOut~21_combout\ $end
$var wire 1 ^# \clkOut~reg0_q\ $end
$var wire 1 _# s_counter [31] $end
$var wire 1 `# s_counter [30] $end
$var wire 1 a# s_counter [29] $end
$var wire 1 b# s_counter [28] $end
$var wire 1 c# s_counter [27] $end
$var wire 1 d# s_counter [26] $end
$var wire 1 e# s_counter [25] $end
$var wire 1 f# s_counter [24] $end
$var wire 1 g# s_counter [23] $end
$var wire 1 h# s_counter [22] $end
$var wire 1 i# s_counter [21] $end
$var wire 1 j# s_counter [20] $end
$var wire 1 k# s_counter [19] $end
$var wire 1 l# s_counter [18] $end
$var wire 1 m# s_counter [17] $end
$var wire 1 n# s_counter [16] $end
$var wire 1 o# s_counter [15] $end
$var wire 1 p# s_counter [14] $end
$var wire 1 q# s_counter [13] $end
$var wire 1 r# s_counter [12] $end
$var wire 1 s# s_counter [11] $end
$var wire 1 t# s_counter [10] $end
$var wire 1 u# s_counter [9] $end
$var wire 1 v# s_counter [8] $end
$var wire 1 w# s_counter [7] $end
$var wire 1 x# s_counter [6] $end
$var wire 1 y# s_counter [5] $end
$var wire 1 z# s_counter [4] $end
$var wire 1 {# s_counter [3] $end
$var wire 1 |# s_counter [2] $end
$var wire 1 }# s_counter [1] $end
$var wire 1 ~# s_counter [0] $end
$upscope $end
$upscope $end
$enddefinitions $end
#0
$dumpvars
0!
0"
0C
1D
xE
1F
1G
1H
1I
1J
1K
0L
0m
0n
0o
0p
1q
0r
0s
1t
1u
0v
0w
1x
1y
0z
1{
0|
0}
0~
1!!
1"!
0#!
0$!
1%!
0&!
1'!
0(!
0)!
0*!
0+!
0,!
0-!
1.!
0/!
00!
11!
12!
03!
04!
05!
06!
07!
08!
19!
0:!
0;!
1<!
0=!
1>!
0?!
0@!
0A!
0B!
0C!
0D!
1E!
0F!
0G!
1H!
1I!
0J!
0K!
0L!
0M!
0N!
0O!
1P!
0Q!
0R!
1S!
1T!
0U!
0V!
0W!
0X!
0Y!
0Z!
1[!
0\!
0]!
1^!
1_!
0`!
0a!
0b!
0c!
0d!
0e!
1f!
0g!
0h!
1i!
1j!
1k!
0l!
0m!
0n!
0o!
0p!
0q!
1r!
0s!
0t!
1u!
1v!
0w!
0x!
0y!
0z!
0{!
0|!
1}!
0~!
0!"
1""
1#"
0$"
0%"
0&"
0'"
0("
0)"
1*"
0+"
0,"
1-"
1."
0/"
00"
01"
02"
03"
04"
15"
06"
07"
18"
19"
1:"
0;"
0<"
0="
0>"
0?"
0@"
1A"
0B"
0C"
1D"
1E"
0F"
0G"
0H"
0I"
0J"
0K"
1L"
0M"
0N"
1O"
1P"
0Q"
0R"
0S"
0T"
0U"
0V"
1W"
0X"
0Y"
1Z"
1["
0\"
0]"
0^"
0_"
0`"
0a"
1b"
0c"
0d"
1e"
1f"
0g"
0h"
0i"
0j"
1k"
0l"
1m"
0n"
1o"
0p"
0q"
1r"
0s"
1t"
0u"
0v"
1w"
0x"
1y"
0z"
0{"
0|"
1}"
0~"
1!#
0"#
0##
1$#
0%#
1&#
0'#
0(#
1)#
0*#
1+#
0,#
0-#
1.#
0/#
10#
11#
02#
03#
14#
05#
16#
07#
08#
19#
0:#
1;#
0<#
0=#
1>#
0?#
1@#
0A#
0B#
1C#
0D#
1E#
1F#
0G#
0H#
1I#
0J#
1K#
0L#
0M#
1N#
0O#
1P#
0Q#
0R#
1S#
0T#
1U#
0V#
0W#
1X#
0Y#
1Z#
1[#
0\#
0]#
0^#
0#
0$
0%
0&
0'
0(
0)
0*
0+
0,
0-
0.
0/
00
01
02
03
04
05
06
07
08
09
0:
0;
0<
0=
0>
1?
0@
0A
0B
0M
0N
0O
0P
0Q
0R
0S
0T
0U
0V
0W
0X
0Y
0Z
0[
0\
0]
0^
0_
0`
0a
0b
0c
0d
0e
0f
0g
0h
1i
0j
0k
0l
0_#
0`#
0a#
0b#
0c#
0d#
0e#
0f#
0g#
0h#
0i#
0j#
0k#
0l#
0m#
0n#
0o#
0p#
0q#
0r#
0s#
0t#
0u#
0v#
0w#
0x#
0y#
0z#
0{#
0|#
0}#
0~#
$end
#10000
1!
1L
1o
1~#
0u
1h"
1i"
#20000
0!
0L
0o
#30000
1!
1L
1o
0~#
1}#
0i"
0{
1u
0h"
1i"
1{
1|
0|
#40000
0!
0L
0o
#50000
1!
1L
1o
1~#
0u
1h"
1z
1j"
1z"
0i"
0{
1|
1\#
1]#
#60000
0!
0L
0o
#70000
1!
1L
1o
1|#
0~#
0}#
1^#
1i"
1{
1u
0h"
0z
0j"
0|
1}
1&!
0o"
1~
0z"
0i"
1|
0}
1n
0~
0\#
1m
1"
#80000
0!
0L
0o
#90000
1!
1L
1o
1~#
0u
1h"
1i"
#100000
0!
0L
0o
#110000
1!
1L
1o
0~#
1}#
0i"
0{
1u
0h"
1i"
1{
0|
1}
1~
1|
0}
0~
#120000
0!
0L
0o
#130000
1!
1L
1o
1~#
0u
1h"
1z
1j"
1=!
0i"
0{
0|
1}
1g"
0]#
1~
#140000
0!
0L
0o
#150000
1!
1L
1o
0|#
0~#
0}#
0^#
1i"
1{
1u
0h"
0z
0j"
1|
0}
0&!
1o"
0~
0=!
0i"
0|
0n
0g"
0m
0"
#160000
0!
0L
0o
#170000
1!
1L
1o
1~#
0u
1h"
1i"
#180000
0!
0L
0o
#190000
1!
1L
1o
0~#
1}#
0i"
0{
1u
0h"
1i"
1{
1|
0|
#200000
0!
0L
0o
#210000
1!
1L
1o
1~#
0u
1h"
1z
1j"
1z"
0i"
0{
1|
1\#
1]#
#220000
0!
0L
0o
#230000
1!
1L
1o
1|#
0~#
0}#
1^#
1i"
1{
1u
0h"
0z
0j"
0|
1}
1&!
0o"
1~
0z"
0i"
1|
0}
1n
0~
0\#
1m
1"
#240000
0!
0L
0o
#250000
1!
1L
1o
1~#
0u
1h"
1i"
#260000
0!
0L
0o
#270000
1!
1L
1o
0~#
1}#
0i"
0{
1u
0h"
1i"
1{
0|
1}
1~
1|
0}
0~
#280000
0!
0L
0o
#290000
1!
1L
1o
1~#
0u
1h"
1z
1j"
1=!
0i"
0{
0|
1}
1g"
0]#
1~
#300000
0!
0L
0o
#310000
1!
1L
1o
0|#
0~#
0}#
0^#
1i"
1{
1u
0h"
0z
0j"
1|
0}
0&!
1o"
0~
0=!
0i"
0|
0n
0g"
0m
0"
#320000
0!
0L
0o
#330000
1!
1L
1o
1~#
0u
1h"
1i"
#340000
0!
0L
0o
#350000
1!
1L
1o
0~#
1}#
0i"
0{
1u
0h"
1i"
1{
1|
0|
#360000
0!
0L
0o
#370000
1!
1L
1o
1~#
0u
1h"
1z
1j"
1z"
0i"
0{
1|
1\#
1]#
#380000
0!
0L
0o
#390000
1!
1L
1o
1|#
0~#
0}#
1^#
1i"
1{
1u
0h"
0z
0j"
0|
1}
1&!
0o"
1~
0z"
0i"
1|
0}
1n
0~
0\#
1m
1"
#400000
0!
0L
0o
#410000
1!
1L
1o
1~#
0u
1h"
1i"
#420000
0!
0L
0o
#430000
1!
1L
1o
0~#
1}#
0i"
0{
1u
0h"
1i"
1{
0|
1}
1~
1|
0}
0~
#440000
0!
0L
0o
#450000
1!
1L
1o
1~#
0u
1h"
1z
1j"
1=!
0i"
0{
0|
1}
1g"
0]#
1~
#460000
0!
0L
0o
#470000
1!
1L
1o
0|#
0~#
0}#
0^#
1i"
1{
1u
0h"
0z
0j"
1|
0}
0&!
1o"
0~
0=!
0i"
0|
0n
0g"
0m
0"
#480000
0!
0L
0o
#490000
1!
1L
1o
1~#
0u
1h"
1i"
#500000
0!
0L
0o
#510000
1!
1L
1o
0~#
1}#
0i"
0{
1u
0h"
1i"
1{
1|
0|
#520000
0!
0L
0o
#530000
1!
1L
1o
1~#
0u
1h"
1z
1j"
1z"
0i"
0{
1|
1\#
1]#
#540000
0!
0L
0o
#550000
1!
1L
1o
1|#
0~#
0}#
1^#
1i"
1{
1u
0h"
0z
0j"
0|
1}
1&!
0o"
1~
0z"
0i"
1|
0}
1n
0~
0\#
1m
1"
#560000
0!
0L
0o
#570000
1!
1L
1o
1~#
0u
1h"
1i"
#580000
0!
0L
0o
#590000
1!
1L
1o
0~#
1}#
0i"
0{
1u
0h"
1i"
1{
0|
1}
1~
1|
0}
0~
#600000
0!
0L
0o
#610000
1!
1L
1o
1~#
0u
1h"
1z
1j"
1=!
0i"
0{
0|
1}
1g"
0]#
1~
#620000
0!
0L
0o
#630000
1!
1L
1o
0|#
0~#
0}#
0^#
1i"
1{
1u
0h"
0z
0j"
1|
0}
0&!
1o"
0~
0=!
0i"
0|
0n
0g"
0m
0"
#640000
0!
0L
0o
#650000
1!
1L
1o
1~#
0u
1h"
1i"
#660000
0!
0L
0o
#670000
1!
1L
1o
0~#
1}#
0i"
0{
1u
0h"
1i"
1{
1|
0|
#680000
0!
0L
0o
#690000
1!
1L
1o
1~#
0u
1h"
1z
1j"
1z"
0i"
0{
1|
1\#
1]#
#700000
0!
0L
0o
#710000
1!
1L
1o
1|#
0~#
0}#
1^#
1i"
1{
1u
0h"
0z
0j"
0|
1}
1&!
0o"
1~
0z"
0i"
1|
0}
1n
0~
0\#
1m
1"
#720000
0!
0L
0o
#730000
1!
1L
1o
1~#
0u
1h"
1i"
#740000
0!
0L
0o
#750000
1!
1L
1o
0~#
1}#
0i"
0{
1u
0h"
1i"
1{
0|
1}
1~
1|
0}
0~
#760000
0!
0L
0o
#770000
1!
1L
1o
1~#
0u
1h"
1z
1j"
1=!
0i"
0{
0|
1}
1g"
0]#
1~
#780000
0!
0L
0o
#790000
1!
1L
1o
0|#
0~#
0}#
0^#
1i"
1{
1u
0h"
0z
0j"
1|
0}
0&!
1o"
0~
0=!
0i"
0|
0n
0g"
0m
0"
#800000
0!
0L
0o
#810000
1!
1L
1o
1~#
0u
1h"
1i"
#820000
0!
0L
0o
#830000
1!
1L
1o
0~#
1}#
0i"
0{
1u
0h"
1i"
1{
1|
0|
#840000
0!
0L
0o
#850000
1!
1L
1o
1~#
0u
1h"
1z
1j"
1z"
0i"
0{
1|
1\#
1]#
#860000
0!
0L
0o
#870000
1!
1L
1o
1|#
0~#
0}#
1^#
1i"
1{
1u
0h"
0z
0j"
0|
1}
1&!
0o"
1~
0z"
0i"
1|
0}
1n
0~
0\#
1m
1"
#880000
0!
0L
0o
#890000
1!
1L
1o
1~#
0u
1h"
1i"
#900000
0!
0L
0o
#910000
1!
1L
1o
0~#
1}#
0i"
0{
1u
0h"
1i"
1{
0|
1}
1~
1|
0}
0~
#920000
0!
0L
0o
#930000
1!
1L
1o
1~#
0u
1h"
1z
1j"
1=!
0i"
0{
0|
1}
1g"
0]#
1~
#940000
0!
0L
0o
#950000
1!
1L
1o
0|#
0~#
0}#
0^#
1i"
1{
1u
0h"
0z
0j"
1|
0}
0&!
1o"
0~
0=!
0i"
0|
0n
0g"
0m
0"
#960000
0!
0L
0o
#970000
1!
1L
1o
1~#
0u
1h"
1i"
#980000
0!
0L
0o
#990000
1!
1L
1o
0~#
1}#
0i"
0{
1u
0h"
1i"
1{
1|
0|
