1ano/2 semestre/LSD/3 teste/simulation/qsim/teste.msim.vcd
$comment
	File created using the following command:
		vcd file teste.msim.vcd -direction
$end
$date
	Mon Jun 26 16:27:42 2023
$end
$version
	ModelSim Version 2020.1
$end
$timescale
	1ps
$end

$scope module teste_vhd_vec_tst $end
$var wire 1 ! clk $end
$var wire 1 " num3 [2] $end
$var wire 1 # num3 [1] $end
$var wire 1 $ num3 [0] $end

$scope module i1 $end
$var wire 1 % gnd $end
$var wire 1 & vcc $end
$var wire 1 ' unknown $end
$var wire 1 ( devoe $end
$var wire 1 ) devclrn $end
$var wire 1 * devpor $end
$var wire 1 + ww_devoe $end
$var wire 1 , ww_devclrn $end
$var wire 1 - ww_devpor $end
$var wire 1 . ww_clk $end
$var wire 1 / ww_num3 [2] $end
$var wire 1 0 ww_num3 [1] $end
$var wire 1 1 ww_num3 [0] $end
$var wire 1 2 \num3[0]~output_o\ $end
$var wire 1 3 \num3[1]~output_o\ $end
$var wire 1 4 \num3[2]~output_o\ $end
$var wire 1 5 \clk~input_o\ $end
$var wire 1 6 \s_count[0]~2_combout\ $end
$var wire 1 7 \s_count[1]~0_combout\ $end
$var wire 1 8 \s_count[2]~1_combout\ $end
$var wire 1 9 s_count [2] $end
$var wire 1 : s_count [1] $end
$var wire 1 ; s_count [0] $end
$upscope $end
$upscope $end
$enddefinitions $end
#0
$dumpvars
0!
0%
1&
x'
1(
1)
1*
1+
1,
1-
0.
02
03
04
05
16
07
08
0/
00
01
09
0:
0;
0"
0#
0$
$end
#5000
1!
1.
15
1;
06
17
12
11
1$
#10000
0!
0.
05
#15000
1!
1.
15
0;
1:
16
13
02
10
01
0$
1#
#20000
0!
0.
05
#25000
1!
1.
15
1;
06
07
18
12
11
1$
#30000
0!
0.
05
#35000
1!
1.
15
0;
0:
19
16
14
03
02
1/
00
01
0$
0#
1"
#40000
0!
0.
05
#45000
1!
1.
15
1;
06
17
12
11
1$
#50000
0!
0.
05
#55000
1!
1.
15
0;
1:
16
13
02
10
01
0$
1#
#60000
0!
0.
05
#65000
1!
1.
15
1;
06
07
08
12
11
1$
#70000
0!
0.
05
#75000
1!
1.
15
0;
0:
09
16
04
03
02
0/
00
01
0$
0#
0"
#80000
0!
0.
05
#85000
1!
1.
15
1;
06
17
12
11
1$
#90000
0!
0.
05
#95000
1!
1.
15
0;
1:
16
13
02
10
01
0$
1#
#100000
0!
0.
05
#105000
1!
1.
15
1;
06
07
18
12
11
1$
#110000
0!
0.
05
#115000
1!
1.
15
0;
0:
19
16
14
03
02
1/
00
01
0$
0#
1"
#120000
0!
0.
05
#125000
1!
1.
15
1;
06
17
12
11
1$
#130000
0!
0.
05
#135000
1!
1.
15
0;
1:
16
13
02
10
01
0$
1#
#140000
0!
0.
05
#145000
1!
1.
15
1;
06
07
08
12
11
1$
#150000
0!
0.
05
#155000
1!
1.
15
0;
0:
09
16
04
03
02
0/
00
01
0$
0#
0"
#160000
0!
0.
05
#165000
1!
1.
15
1;
06
17
12
11
1$
#170000
0!
0.
05
#175000
1!
1.
15
0;
1:
16
13
02
10
01
0$
1#
#180000
0!
0.
05
#185000
1!
1.
15
1;
06
07
18
12
11
1$
#190000
0!
0.
05
#195000
1!
1.
15
0;
0:
19
16
14
03
02
1/
00
01
0$
0#
1"
#200000
0!
0.
05
#205000
1!
1.
15
1;
06
17
12
11
1$
#210000
0!
0.
05
#215000
1!
1.
15
0;
1:
16
13
02
10
01
0$
1#
#220000
0!
0.
05
#225000
1!
1.
15
1;
06
07
08
12
11
1$
#230000
0!
0.
05
#235000
1!
1.
15
0;
0:
09
16
04
03
02
0/
00
01
0$
0#
0"
#240000
0!
0.
05
#245000
1!
1.
15
1;
06
17
12
11
1$
#250000
0!
0.
05
#255000
1!
1.
15
0;
1:
16
13
02
10
01
0$
1#
#260000
0!
0.
05
#265000
1!
1.
15
1;
06
07
18
12
11
1$
#270000
0!
0.
05
#275000
1!
1.
15
0;
0:
19
16
14
03
02
1/
00
01
0$
0#
1"
#280000
0!
0.
05
#285000
1!
1.
15
1;
06
17
12
11
1$
#290000
0!
0.
05
#295000
1!
1.
15
0;
1:
16
13
02
10
01
0$
1#
#300000
0!
0.
05
#305000
1!
1.
15
1;
06
07
08
12
11
1$
#310000
0!
0.
05
#315000
1!
1.
15
0;
0:
09
16
04
03
02
0/
00
01
0$
0#
0"
#320000
0!
0.
05
#325000
1!
1.
15
1;
06
17
12
11
1$
#330000
0!
0.
05
#335000
1!
1.
15
0;
1:
16
13
02
10
01
0$
1#
#340000
0!
0.
05
#345000
1!
1.
15
1;
06
07
18
12
11
1$
#350000
0!
0.
05
#355000
1!
1.
15
0;
0:
19
16
14
03
02
1/
00
01
0$
0#
1"
#360000
0!
0.
05
#365000
1!
1.
15
1;
06
17
12
11
1$
#370000
0!
0.
05
#375000
1!
1.
15
0;
1:
16
13
02
10
01
0$
1#
#380000
0!
0.
05
#385000
1!
1.
15
1;
06
07
08
12
11
1$
#390000
0!
0.
05
#395000
1!
1.
15
0;
0:
09
16
04
03
02
0/
00
01
0$
0#
0"
#400000
0!
0.
05
#405000
1!
1.
15
1;
06
17
12
11
1$
#410000
0!
0.
05
#415000
1!
1.
15
0;
1:
16
13
02
10
01
0$
1#
#420000
0!
0.
05
#425000
1!
1.
15
1;
06
07
18
12
11
1$
#430000
0!
0.
05
#435000
1!
1.
15
0;
0:
19
16
14
03
02
1/
00
01
0$
0#
1"
#440000
0!
0.
05
#445000
1!
1.
15
1;
06
17
12
11
1$
#450000
0!
0.
05
#455000
1!
1.
15
0;
1:
16
13
02
10
01
0$
1#
#460000
0!
0.
05
#465000
1!
1.
15
1;
06
07
08
12
11
1$
#470000
0!
0.
05
#475000
1!
1.
15
0;
0:
09
16
04
03
02
0/
00
01
0$
0#
0"
#480000
0!
0.
05
#485000
1!
1.
15
1;
06
17
12
11
1$
#490000
0!
0.
05
#495000
1!
1.
15
0;
1:
16
13
02
10
01
0$
1#
#500000
0!
0.
05
#505000
1!
1.
15
1;
06
07
18
12
11
1$
#510000
0!
0.
05
#515000
1!
1.
15
0;
0:
19
16
14
03
02
1/
00
01
0$
0#
1"
#520000
0!
0.
05
#525000
1!
1.
15
1;
06
17
12
11
1$
#530000
0!
0.
05
#535000
1!
1.
15
0;
1:
16
13
02
10
01
0$
1#
#540000
0!
0.
05
#545000
1!
1.
15
1;
06
07
08
12
11
1$
#550000
0!
0.
05
#555000
1!
1.
15
0;
0:
09
16
04
03
02
0/
00
01
0$
0#
0"
#560000
0!
0.
05
#565000
1!
1.
15
1;
06
17
12
11
1$
#570000
0!
0.
05
#575000
1!
1.
15
0;
1:
16
13
02
10
01
0$
1#
#580000
0!
0.
05
#585000
1!
1.
15
1;
06
07
18
12
11
1$
#590000
0!
0.
05
#595000
1!
1.
15
0;
0:
19
16
14
03
02
1/
00
01
0$
0#
1"
#600000
0!
0.
05
#605000
1!
1.
15
1;
06
17
12
11
1$
#610000
0!
0.
05
#615000
1!
1.
15
0;
1:
16
13
02
10
01
0$
1#
#620000
0!
0.
05
#625000
1!
1.
15
1;
06
07
08
12
11
1$
#630000
0!
0.
05
#635000
1!
1.
15
0;
0:
09
16
04
03
02
0/
00
01
0$
0#
0"
#640000
0!
0.
05
#645000
1!
1.
15
1;
06
17
12
11
1$
#650000
0!
0.
05
#655000
1!
1.
15
0;
1:
16
13
02
10
01
0$
1#
#660000
0!
0.
05
#665000
1!
1.
15
1;
06
07
18
12
11
1$
#670000
0!
0.
05
#675000
1!
1.
15
0;
0:
19
16
14
03
02
1/
00
01
0$
0#
1"
#680000
0!
0.
05
#685000
1!
1.
15
1;
06
17
12
11
1$
#690000
0!
0.
05
#695000
1!
1.
15
0;
1:
16
13
02
10
01
0$
1#
#700000
0!
0.
05
#705000
1!
1.
15
1;
06
07
08
12
11
1$
#710000
0!
0.
05
#715000
1!
1.
15
0;
0:
09
16
04
03
02
0/
00
01
0$
0#
0"
#720000
0!
0.
05
#725000
1!
1.
15
1;
06
17
12
11
1$
#730000
0!
0.
05
#735000
1!
1.
15
0;
1:
16
13
02
10
01
0$
1#
#740000
0!
0.
05
#745000
1!
1.
15
1;
06
07
18
12
11
1$
#750000
0!
0.
05
#755000
1!
1.
15
0;
0:
19
16
14
03
02
1/
00
01
0$
0#
1"
#760000
0!
0.
05
#765000
1!
1.
15
1;
06
17
12
11
1$
#770000
0!
0.
05
#775000
1!
1.
15
0;
1:
16
13
02
10
01
0$
1#
#780000
0!
0.
05
#785000
1!
1.
15
1;
06
07
08
12
11
1$
#790000
0!
0.
05
#795000
1!
1.
15
0;
0:
09
16
04
03
02
0/
00
01
0$
0#
0"
#800000
0!
0.
05
#805000
1!
1.
15
1;
06
17
12
11
1$
#810000
0!
0.
05
#815000
1!
1.
15
0;
1:
16
13
02
10
01
0$
1#
#820000
0!
0.
05
#825000
1!
1.
15
1;
06
07
18
12
11
1$
#830000
0!
0.
05
#835000
1!
1.
15
0;
0:
19
16
14
03
02
1/
00
01
0$
0#
1"
#840000
0!
0.
05
#845000
1!
1.
15
1;
06
17
12
11
1$
#850000
0!
0.
05
#855000
1!
1.
15
0;
1:
16
13
02
10
01
0$
1#
#860000
0!
0.
05
#865000
1!
1.
15
1;
06
07
08
12
11
1$
#870000
0!
0.
05
#875000
1!
1.
15
0;
0:
09
16
04
03
02
0/
00
01
0$
0#
0"
#880000
0!
0.
05
#885000
1!
1.
15
1;
06
17
12
11
1$
#890000
0!
0.
05
#895000
1!
1.
15
0;
1:
16
13
02
10
01
0$
1#
#900000
0!
0.
05
#905000
1!
1.
15
1;
06
07
18
12
11
1$
#910000
0!
0.
05
#915000
1!
1.
15
0;
0:
19
16
14
03
02
1/
00
01
0$
0#
1"
#920000
0!
0.
05
#925000
1!
1.
15
1;
06
17
12
11
1$
#930000
0!
0.
05
#935000
1!
1.
15
0;
1:
16
13
02
10
01
0$
1#
#940000
0!
0.
05
#945000
1!
1.
15
1;
06
07
08
12
11
1$
#950000
0!
0.
05
#955000
1!
1.
15
0;
0:
09
16
04
03
02
0/
00
01
0$
0#
0"
#960000
0!
0.
05
#965000
1!
1.
15
1;
06
17
12
11
1$
#970000
0!
0.
05
#975000
1!
1.
15
0;
1:
16
13
02
10
01
0$
1#
#980000
0!
0.
05
#985000
1!
1.
15
1;
06
07
18
12
11
1$
#990000
0!
0.
05
#995000
1!
1.
15
0;
0:
19
16
14
03
02
1/
00
01
0$
0#
1"
