1ano/2 semestre/LSD/Projeto/Projeto0/simulation/qsim/ControloRadiador.msim.vcd
$comment
	File created using the following command:
		vcd file ControloRadiador.msim.vcd -direction
$end
$date
	Sun May 28 17:11:07 2023
$end
$version
	ModelSim Version 2020.1
$end
$timescale
	1ps
$end

$scope module simulambiente_vhd_vec_tst $end
$var wire 1 ! clk $end
$var wire 1 " counter [11] $end
$var wire 1 # counter [10] $end
$var wire 1 $ counter [9] $end
$var wire 1 % counter [8] $end
$var wire 1 & counter [7] $end
$var wire 1 ' counter [6] $end
$var wire 1 ( counter [5] $end
$var wire 1 ) counter [4] $end
$var wire 1 * counter [3] $end
$var wire 1 + counter [2] $end
$var wire 1 , counter [1] $end
$var wire 1 - counter [0] $end
$var wire 1 . up_down $end

$scope module i1 $end
$var wire 1 / gnd $end
$var wire 1 0 vcc $end
$var wire 1 1 unknown $end
$var wire 1 2 devoe $end
$var wire 1 3 devclrn $end
$var wire 1 4 devpor $end
$var wire 1 5 ww_devoe $end
$var wire 1 6 ww_devclrn $end
$var wire 1 7 ww_devpor $end
$var wire 1 8 ww_clk $end
$var wire 1 9 ww_up_down $end
$var wire 1 : ww_counter [11] $end
$var wire 1 ; ww_counter [10] $end
$var wire 1 < ww_counter [9] $end
$var wire 1 = ww_counter [8] $end
$var wire 1 > ww_counter [7] $end
$var wire 1 ? ww_counter [6] $end
$var wire 1 @ ww_counter [5] $end
$var wire 1 A ww_counter [4] $end
$var wire 1 B ww_counter [3] $end
$var wire 1 C ww_counter [2] $end
$var wire 1 D ww_counter [1] $end
$var wire 1 E ww_counter [0] $end
$var wire 1 F \counter[0]~output_o\ $end
$var wire 1 G \counter[1]~output_o\ $end
$var wire 1 H \counter[2]~output_o\ $end
$var wire 1 I \counter[3]~output_o\ $end
$var wire 1 J \counter[4]~output_o\ $end
$var wire 1 K \counter[5]~output_o\ $end
$var wire 1 L \counter[6]~output_o\ $end
$var wire 1 M \counter[7]~output_o\ $end
$var wire 1 N \counter[8]~output_o\ $end
$var wire 1 O \counter[9]~output_o\ $end
$var wire 1 P \counter[10]~output_o\ $end
$var wire 1 Q \counter[11]~output_o\ $end
$var wire 1 R \clk~input_o\ $end
$var wire 1 S \counter_int[0]~12_combout\ $end
$var wire 1 T \up_down~input_o\ $end
$var wire 1 U \counter_int[0]~13\ $end
$var wire 1 V \counter_int[1]~23_combout\ $end
$var wire 1 W \counter_int[1]~24\ $end
$var wire 1 X \counter_int[2]~25_combout\ $end
$var wire 1 Y \counter_int[0]~14_combout\ $end
$var wire 1 Z \counter_int[2]~26\ $end
$var wire 1 [ \counter_int[3]~27_combout\ $end
$var wire 1 \ \counter_int[3]~28\ $end
$var wire 1 ] \counter_int[4]~29_combout\ $end
$var wire 1 ^ \counter_int[4]~30\ $end
$var wire 1 _ \counter_int[5]~31_combout\ $end
$var wire 1 ` \counter_int[5]~32\ $end
$var wire 1 a \counter_int[6]~33_combout\ $end
$var wire 1 b \counter_int[0]~15_combout\ $end
$var wire 1 c \counter_int[6]~34\ $end
$var wire 1 d \counter_int[7]~35_combout\ $end
$var wire 1 e \counter_int[7]~36\ $end
$var wire 1 f \counter_int[8]~37_combout\ $end
$var wire 1 g \counter_int[8]~38\ $end
$var wire 1 h \counter_int[9]~39_combout\ $end
$var wire 1 i \counter_int[9]~40\ $end
$var wire 1 j \counter_int[10]~41_combout\ $end
$var wire 1 k \counter_int[0]~16_combout\ $end
$var wire 1 l \counter_int[10]~42\ $end
$var wire 1 m \counter_int[11]~43_combout\ $end
$var wire 1 n \counter_int[0]~17_combout\ $end
$var wire 1 o \counter_int[0]~18_combout\ $end
$var wire 1 p \counter_int[0]~19_combout\ $end
$var wire 1 q \counter_int[0]~20_combout\ $end
$var wire 1 r \counter_int[0]~21_combout\ $end
$var wire 1 s \counter_int[0]~22_combout\ $end
$var wire 1 t \counter[0]~reg0_q\ $end
$var wire 1 u \counter[1]~reg0_q\ $end
$var wire 1 v \counter[2]~reg0_q\ $end
$var wire 1 w \counter[3]~reg0_q\ $end
$var wire 1 x \counter[4]~reg0_q\ $end
$var wire 1 y \counter[5]~reg0_q\ $end
$var wire 1 z \counter[6]~reg0_q\ $end
$var wire 1 { \counter[7]~reg0_q\ $end
$var wire 1 | \counter[8]~reg0_q\ $end
$var wire 1 } \counter[9]~reg0_q\ $end
$var wire 1 ~ \counter[10]~reg0_q\ $end
$var wire 1 !! \counter[11]~reg0_q\ $end
$var wire 1 "! counter_int [11] $end
$var wire 1 #! counter_int [10] $end
$var wire 1 $! counter_int [9] $end
$var wire 1 %! counter_int [8] $end
$var wire 1 &! counter_int [7] $end
$var wire 1 '! counter_int [6] $end
$var wire 1 (! counter_int [5] $end
$var wire 1 )! counter_int [4] $end
$var wire 1 *! counter_int [3] $end
$var wire 1 +! counter_int [2] $end
$var wire 1 ,! counter_int [1] $end
$var wire 1 -! counter_int [0] $end
$upscope $end
$upscope $end
$enddefinitions $end
#0
$dumpvars
0!
0.
0/
10
x1
12
13
14
15
16
17
08
09
0F
0G
0H
0I
0J
0K
0L
0M
0N
0O
0P
0Q
0R
1S
0T
0U
1V
1W
1X
1Y
0Z
1[
1\
1]
0^
1_
1`
1a
1b
0c
1d
1e
1f
0g
1h
1i
1j
1k
0l
1m
1n
0o
0p
0q
0r
1s
0t
0u
0v
0w
0x
0y
0z
0{
0|
0}
0~
0!!
0:
0;
0<
0=
0>
0?
0@
0A
0B
0C
0D
0E
0"!
0#!
0$!
0%!
0&!
0'!
0(!
0)!
0*!
0+!
0,!
0-!
0"
0#
0$
0%
0&
0'
0(
0)
0*
0+
0,
0-
$end
#500
1!
18
1R
#1000
0!
08
0R
#1500
1!
18
1R
#2000
0!
08
0R
#2500
1!
18
1R
#3000
0!
08
0R
#3500
1!
18
1R
#4000
0!
08
0R
#4500
1!
18
1R
#5000
0!
08
0R
#5500
1!
18
1R
#6000
0!
08
0R
#6500
1!
18
1R
#7000
0!
08
0R
#7500
1!
18
1R
#8000
0!
08
0R
#8500
1!
18
1R
#9000
0!
08
0R
#9500
1!
18
1R
#10000
0!
08
0R
#10500
1!
18
1R
#11000
0!
08
0R
#11500
1!
18
1R
#12000
0!
08
0R
#12500
1!
18
1R
#13000
0!
08
0R
#13500
1!
18
1R
#14000
0!
08
0R
#14500
1!
18
1R
#15000
0!
08
0R
#15500
1!
18
1R
#16000
0!
08
0R
#16500
1!
18
1R
#17000
0!
08
0R
#17500
1!
18
1R
#18000
0!
08
0R
#18500
1!
18
1R
#19000
0!
08
0R
#19500
1!
18
1R
#20000
0!
1.
08
19
1T
0R
0V
0X
0Y
0[
0]
0_
0a
0d
0f
0h
0j
0m
0n
0s
#20500
1!
18
1R
1-!
0S
1U
1V
#21000
0!
08
0R
#21500
1!
18
1R
1,!
0-!
1t
1S
0U
0V
0W
1X
1V
1W
1F
0X
1E
1-
#22000
0!
08
0R
#22500
1!
18
1R
1-!
0t
1u
0S
1U
0V
0W
1G
0F
1X
1D
0E
0-
1,
#23000
0!
08
0R
#23500
1!
18
1R
0,!
1+!
0-!
1t
1S
0U
0X
1Z
1V
1W
1X
0Z
1[
0V
1F
0[
1E
1-
#24000
0!
08
0R
#24500
1!
18
1R
1-!
0t
0u
1v
0S
1U
1V
1H
0G
0F
1C
0D
0E
0-
0,
1+
#25000
0!
08
0R
#25500
1!
18
1R
1,!
0-!
1t
1S
0U
0V
0W
0X
1Z
1V
1W
1F
1X
0Z
1[
1E
1-
0[
#26000
0!
08
0R
#26500
1!
18
1R
1-!
0t
1u
0S
1U
1o
0V
0W
1G
0F
0X
1Z
1D
0E
0-
1,
1[
#27000
0!
08
0R
#27500
1!
18
1R
0,!
0+!
1*!
0-!
1t
1S
0U
0[
0\
0b
1X
0Z
1V
1W
0o
0X
1[
1\
1]
0V
1F
0]
1E
1-
#28000
0!
08
0R
#28500
1!
18
1R
1-!
0t
0u
0v
1w
0S
1U
1V
1I
0H
0G
0F
1B
0C
0D
0E
0-
0,
0+
1*
#29000
0!
08
0R
#29500
1!
18
1R
1,!
0-!
1t
1S
0U
0V
0W
1X
1V
1W
1F
0X
1E
1-
#30000
0!
0.
08
09
0T
0R
0V
0W
1X
0[
0\
1]
1_
1a
1d
1f
1h
1j
1m
0]
1^
0X
1Z
1[
0_
0`
0a
1c
0d
0e
0f
1g
0h
0i
0j
1l
0m
#30500
1!
18
1R
0,!
1-!
0t
1u
0S
1U
1V
1W
1X
0Z
0V
0W
1G
0F
0X
1Z
0[
1D
0E
0-
1,
1[
#31000
0!
08
0R
#31500
1!
18
1R
0-!
1t
0u
1S
0U
1Y
1V
1W
0G
1F
1X
0Z
0D
1E
1-
0,
0[
#32000
0!
08
0R
#32500
1!
18
1R
1,!
1+!
0*!
1-!
0t
0S
1U
1[
1\
1b
0X
1Z
0V
0W
0Y
1X
0[
0\
1]
0^
1V
0F
1_
1`
0]
1^
0E
0-
0_
0`
1a
0c
1d
1e
0a
1c
0d
0e
1f
0g
1h
1i
0f
1g
0h
0i
1j
0l
1m
0j
1l
0m
#33000
0!
08
0R
#33500
1!
18
1R
0-!
1t
1u
1v
0w
1S
0U
0V
0I
1H
1G
1F
0B
1C
1D
1E
1-
1,
1+
0*
#34000
0!
08
0R
#34500
1!
18
1R
0,!
1-!
0t
0S
1U
1V
1W
0X
0V
0W
0F
1X
0E
0-
#35000
0!
08
0R
#35500
1!
18
1R
0-!
1t
0u
1S
0U
1V
1W
0G
1F
0X
0D
1E
1-
0,
#36000
0!
08
0R
#36500
1!
18
1R
1,!
0+!
1-!
0t
0S
1U
1X
0Z
0V
0W
0X
1Z
1[
1\
1V
0F
1]
0^
0[
0\
0E
0-
0]
1^
1_
1`
1a
0c
0_
0`
0a
1c
1d
1e
1f
0g
0d
0e
0f
1g
1h
1i
1j
0l
0h
0i
0j
1l
1m
0m
#37000
0!
08
0R
#37500
1!
18
1R
0-!
1t
1u
0v
1S
0U
0V
0H
1G
1F
0C
1D
1E
1-
1,
0+
#38000
0!
08
0R
#38500
1!
18
1R
0,!
1-!
0t
0S
1U
1V
1W
1X
0Z
0V
0W
0F
0X
1Z
1[
1\
0E
0-
1]
0^
0[
0\
0]
1^
1_
1`
1a
0c
0_
0`
0a
1c
1d
1e
1f
0g
0d
0e
0f
1g
1h
1i
1j
0l
0h
0i
0j
1l
1m
0m
#39000
0!
08
0R
#39500
1!
18
1R
0-!
1t
0u
1S
0U
1Y
1n
1V
1W
0G
1F
1X
0Z
1s
0D
1E
1-
0,
1[
1\
1]
0^
1_
1`
1a
0c
1d
1e
1f
0g
1h
1i
1j
0l
1m
#40000
0!
1.
08
19
1T
0R
0V
0X
0Y
0[
0]
0_
0a
0d
0f
0h
0j
0m
0n
0s
#40500
1!
18
1R
1-!
0t
0S
1U
1V
0F
0E
0-
#41000
0!
08
0R
#41500
1!
18
1R
1,!
0-!
1t
1S
0U
0V
0W
1X
1V
1W
1F
0X
1E
1-
#42000
0!
08
0R
#42500
1!
18
1R
1-!
0t
1u
0S
1U
0V
0W
1G
0F
1X
1D
0E
0-
1,
#43000
0!
08
0R
#43500
1!
18
1R
0,!
1+!
0-!
1t
1S
0U
0X
1Z
1V
1W
1X
0Z
1[
0V
1F
0[
1E
1-
#44000
0!
08
0R
#44500
1!
18
1R
1-!
0t
0u
1v
0S
1U
1V
1H
0G
0F
1C
0D
0E
0-
0,
1+
#45000
0!
08
0R
#45500
1!
18
1R
1,!
0-!
1t
1S
0U
0V
0W
0X
1Z
1V
1W
1F
1X
0Z
1[
1E
1-
0[
#46000
0!
08
0R
#46500
1!
18
1R
1-!
0t
1u
0S
1U
1o
0V
0W
1G
0F
0X
1Z
1D
0E
0-
1,
1[
#47000
0!
08
0R
#47500
1!
18
1R
0,!
0+!
1*!
0-!
1t
1S
0U
0[
0\
0b
1X
0Z
1V
1W
0o
0X
1[
1\
1]
0V
1F
0]
1E
1-
#48000
0!
08
0R
#48500
1!
18
1R
1-!
0t
0u
0v
1w
0S
1U
1V
1I
0H
0G
0F
1B
0C
0D
0E
0-
0,
0+
1*
#49000
0!
08
0R
#49500
1!
18
1R
1,!
0-!
1t
1S
0U
0V
0W
1X
1V
1W
1F
0X
1E
1-
#50000
0!
0.
08
09
0T
0R
0V
0W
1X
0[
0\
1]
1_
1a
1d
1f
1h
1j
1m
0]
1^
0X
1Z
1[
0_
0`
0a
1c
0d
0e
0f
1g
0h
0i
0j
1l
0m
#50500
1!
18
1R
0,!
1-!
0t
1u
0S
1U
1V
1W
1X
0Z
0V
0W
1G
0F
0X
1Z
0[
1D
0E
0-
1,
1[
#51000
0!
08
0R
#51500
1!
18
1R
0-!
1t
0u
1S
0U
1Y
1V
1W
0G
1F
1X
0Z
0D
1E
1-
0,
0[
#52000
0!
08
0R
#52500
1!
18
1R
1,!
1+!
0*!
1-!
0t
0S
1U
1[
1\
1b
0X
1Z
0V
0W
0Y
1X
0[
0\
1]
0^
1V
0F
1_
1`
0]
1^
0E
0-
0_
0`
1a
0c
1d
1e
0a
1c
0d
0e
1f
0g
1h
1i
0f
1g
0h
0i
1j
0l
1m
0j
1l
0m
#53000
0!
08
0R
#53500
1!
18
1R
0-!
1t
1u
1v
0w
1S
0U
0V
0I
1H
1G
1F
0B
1C
1D
1E
1-
1,
1+
0*
#54000
0!
08
0R
#54500
1!
18
1R
0,!
1-!
0t
0S
1U
1V
1W
0X
0V
0W
0F
1X
0E
0-
#55000
0!
08
0R
#55500
1!
18
1R
0-!
1t
0u
1S
0U
1V
1W
0G
1F
0X
0D
1E
1-
0,
#56000
0!
08
0R
#56500
1!
18
1R
1,!
0+!
1-!
0t
0S
1U
1X
0Z
0V
0W
0X
1Z
1[
1\
1V
0F
1]
0^
0[
0\
0E
0-
0]
1^
1_
1`
1a
0c
0_
0`
0a
1c
1d
1e
1f
0g
0d
0e
0f
1g
1h
1i
1j
0l
0h
0i
0j
1l
1m
0m
#57000
0!
08
0R
#57500
1!
18
1R
0-!
1t
1u
0v
1S
0U
0V
0H
1G
1F
0C
1D
1E
1-
1,
0+
#58000
0!
08
0R
#58500
1!
18
1R
0,!
1-!
0t
0S
1U
1V
1W
1X
0Z
0V
0W
0F
0X
1Z
1[
1\
0E
0-
1]
0^
0[
0\
0]
1^
1_
1`
1a
0c
0_
0`
0a
1c
1d
1e
1f
0g
0d
0e
0f
1g
1h
1i
1j
0l
0h
0i
0j
1l
1m
0m
#59000
0!
08
0R
#59500
1!
18
1R
0-!
1t
0u
1S
0U
1Y
1n
1V
1W
0G
1F
1X
0Z
1s
0D
1E
1-
0,
1[
1\
1]
0^
1_
1`
1a
0c
1d
1e
1f
0g
1h
1i
1j
0l
1m
#60000
0!
1.
08
19
1T
0R
0V
0X
0Y
0[
0]
0_
0a
0d
0f
0h
0j
0m
0n
0s
#60500
1!
18
1R
1-!
0t
0S
1U
1V
0F
0E
0-
#61000
0!
08
0R
#61500
1!
18
1R
1,!
0-!
1t
1S
0U
0V
0W
1X
1V
1W
1F
0X
1E
1-
#62000
0!
08
0R
#62500
1!
18
1R
1-!
0t
1u
0S
1U
0V
0W
1G
0F
1X
1D
0E
0-
1,
#63000
0!
08
0R
#63500
1!
18
1R
0,!
1+!
0-!
1t
1S
0U
0X
1Z
1V
1W
1X
0Z
1[
0V
1F
0[
1E
1-
#64000
0!
08
0R
#64500
1!
18
1R
1-!
0t
0u
1v
0S
1U
1V
1H
0G
0F
1C
0D
0E
0-
0,
1+
#65000
0!
08
0R
#65500
1!
18
1R
1,!
0-!
1t
1S
0U
0V
0W
0X
1Z
1V
1W
1F
1X
0Z
1[
1E
1-
0[
#66000
0!
08
0R
#66500
1!
18
1R
1-!
0t
1u
0S
1U
1o
0V
0W
1G
0F
0X
1Z
1D
0E
0-
1,
1[
#67000
0!
08
0R
#67500
1!
18
1R
0,!
0+!
1*!
0-!
1t
1S
0U
0[
0\
0b
1X
0Z
1V
1W
0o
0X
1[
1\
1]
0V
1F
0]
1E
1-
#68000
0!
08
0R
#68500
1!
18
1R
1-!
0t
0u
0v
1w
0S
1U
1V
1I
0H
0G
0F
1B
0C
0D
0E
0-
0,
0+
1*
#69000
0!
08
0R
#69500
1!
18
1R
1,!
0-!
1t
1S
0U
0V
0W
1X
1V
1W
1F
0X
1E
1-
#70000
0!
08
0R
#70500
1!
18
1R
1-!
0t
1u
0S
1U
0V
0W
1G
0F
1X
1D
0E
0-
1,
#71000
0!
08
0R
#71500
1!
18
1R
0,!
1+!
0-!
1t
1S
0U
0X
1Z
1V
1W
1X
0Z
0[
0\
0V
1F
1]
1[
1\
1E
1-
0]
#72000
0!
08
0R
#72500
1!
18
1R
1-!
0t
0u
1v
0S
1U
1V
1H
0G
0F
1C
0D
0E
0-
0,
1+
#73000
0!
08
0R
#73500
1!
18
1R
1,!
0-!
1t
1S
0U
0V
0W
0X
1Z
1V
1W
1F
1X
0Z
0[
0\
1E
1-
1]
1[
1\
0]
#74000
0!
08
0R
#74500
1!
18
1R
1-!
0t
1u
0S
1U
1o
0V
0W
1G
0F
0X
1Z
1D
0E
0-
1,
0[
0\
1]
#75000
0!
08
0R
#75500
1!
18
1R
0,!
0+!
0*!
1)!
0-!
1t
1S
0U
0]
1^
1[
1\
1X
0Z
1V
1W
0o
0X
0[
1]
0^
1_
0V
1F
0_
1E
1-
#76000
0!
08
0R
#76500
1!
18
1R
1-!
0t
0u
0v
0w
1x
0S
1U
1V
1J
0I
0H
0G
0F
1A
0B
0C
0D
0E
0-
0,
0+
0*
1)
#77000
0!
08
0R
#77500
1!
18
1R
1,!
0-!
1t
1S
0U
0V
0W
1X
1V
1W
1F
0X
1E
1-
#78000
0!
08
0R
#78500
1!
18
1R
1-!
0t
1u
0S
1U
0V
0W
1G
0F
1X
1D
0E
0-
1,
#79000
0!
08
0R
#79500
1!
18
1R
0,!
1+!
0-!
1t
1S
0U
0X
1Z
1V
1W
1X
0Z
1[
0V
1F
0[
1E
1-
#80000
0!
08
0R
#80500
1!
18
1R
1-!
0t
0u
1v
0S
1U
1V
1H
0G
0F
1C
0D
0E
0-
0,
1+
#81000
0!
08
0R
#81500
1!
18
1R
1,!
0-!
1t
1S
0U
0V
0W
0X
1Z
1V
1W
1F
1X
0Z
1[
1E
1-
0[
#82000
0!
08
0R
#82500
1!
18
1R
1-!
0t
1u
0S
1U
1o
0V
0W
1G
0F
0X
1Z
1D
0E
0-
1,
1[
#83000
0!
08
0R
#83500
1!
18
1R
0,!
0+!
1*!
0-!
1t
1S
0U
0[
0\
1X
0Z
1V
1W
0o
0X
1[
1\
0]
1^
0V
1F
1_
1]
0^
1E
1-
0_
#84000
0!
08
0R
#84500
1!
18
1R
1-!
0t
0u
0v
1w
0S
1U
1V
1I
0H
0G
0F
1B
0C
0D
0E
0-
0,
0+
1*
#85000
0!
08
0R
#85500
1!
18
1R
1,!
0-!
1t
1S
0U
0V
0W
1X
1V
1W
1F
0X
1E
1-
#86000
0!
08
0R
#86500
1!
18
1R
1-!
0t
1u
0S
1U
0V
0W
1G
0F
1X
1D
0E
0-
1,
#87000
0!
08
0R
#87500
1!
18
1R
0,!
1+!
0-!
1t
1S
0U
0X
1Z
1V
1W
1X
0Z
0[
0\
0V
1F
0]
1^
1[
1\
1E
1-
1]
0^
1_
0_
#88000
0!
08
0R
#88500
1!
18
1R
1-!
0t
0u
1v
0S
1U
1V
1H
0G
0F
1C
0D
0E
0-
0,
1+
#89000
0!
08
0R
#89500
1!
18
1R
1,!
0-!
1t
1S
0U
0V
0W
0X
1Z
1V
1W
1F
1X
0Z
0[
0\
1E
1-
0]
1^
1[
1\
1]
0^
1_
0_
#90000
0!
0.
08
09
0T
0R
0V
0W
0X
1Z
0[
0\
0]
1^
1_
1a
1d
1f
1h
1j
1m
0_
0`
1]
1[
1X
0a
1c
0d
0e
0f
1g
0h
0i
0j
1l
0m
#90500
1!
18
1R
0,!
1-!
0t
1u
0S
1U
1V
1W
0X
0V
0W
1G
0F
1X
1D
0E
0-
1,
#91000
0!
08
0R
#91500
1!
18
1R
0-!
1t
0u
1S
0U
1V
1W
0G
1F
0X
0D
1E
1-
0,
#92000
0!
08
0R
#92500
1!
18
1R
1,!
0+!
1-!
0t
0S
1U
1X
0Z
0V
0W
0X
1Z
0[
1V
0F
1[
0E
0-
#93000
0!
08
0R
#93500
1!
18
1R
0-!
1t
1u
0v
1S
0U
0V
0H
1G
1F
0C
1D
1E
1-
1,
0+
#94000
0!
08
0R
#94500
1!
18
1R
0,!
1-!
0t
0S
1U
1V
1W
1X
0Z
0V
0W
0F
0X
1Z
0[
0E
0-
1[
#95000
0!
08
0R
#95500
1!
18
1R
0-!
1t
0u
1S
0U
1Y
1V
1W
0G
1F
1X
0Z
0D
1E
1-
0,
0[
#96000
0!
08
0R
#96500
1!
18
1R
1,!
1+!
0*!
1-!
0t
0S
1U
1[
1\
0X
1Z
0V
0W
0Y
1X
0[
0\
0]
1V
0F
1]
0E
0-
#97000
0!
08
0R
#97500
1!
18
1R
0-!
1t
1u
1v
0w
1S
0U
0V
0I
1H
1G
1F
0B
1C
1D
1E
1-
1,
1+
0*
#98000
0!
08
0R
#98500
1!
18
1R
0,!
1-!
0t
0S
1U
1V
1W
0X
0V
0W
0F
1X
0E
0-
#99000
0!
08
0R
#99500
1!
18
1R
0-!
1t
0u
1S
0U
1V
1W
0G
1F
0X
0D
1E
1-
0,
#100000
0!
08
0R
#100500
1!
18
1R
1,!
0+!
1-!
0t
0S
1U
1X
0Z
0V
0W
0X
1Z
1[
1\
1V
0F
0]
0[
0\
0E
0-
1]
#101000
0!
08
0R
#101500
1!
18
1R
0-!
1t
1u
0v
1S
0U
0V
0H
1G
1F
0C
1D
1E
1-
1,
0+
#102000
0!
08
0R
#102500
1!
18
1R
0,!
1-!
0t
0S
1U
1V
1W
1X
0Z
0V
0W
0F
0X
1Z
1[
1\
0E
0-
0]
0[
0\
1]
#103000
0!
08
0R
#103500
1!
18
1R
0-!
1t
0u
1S
0U
1Y
1V
1W
0G
1F
1X
0Z
0D
1E
1-
0,
1[
1\
0]
#104000
0!
08
0R
#104500
1!
18
1R
1,!
1+!
1*!
0)!
1-!
0t
0S
1U
1]
0^
0[
0\
0X
1Z
0V
0W
0Y
1X
1[
0]
1^
1_
1`
1V
0F
1a
0c
0_
0`
0E
0-
0a
1c
1d
1e
1f
0g
0d
0e
0f
1g
1h
1i
1j
0l
0h
0i
0j
1l
1m
0m
#105000
0!
08
0R
#105500
1!
18
1R
0-!
1t
1u
1v
1w
0x
1S
0U
0V
0J
1I
1H
1G
1F
0A
1B
1C
1D
1E
1-
1,
1+
1*
0)
#106000
0!
08
0R
#106500
1!
18
1R
0,!
1-!
0t
0S
1U
1V
1W
0X
0V
0W
0F
1X
0E
0-
#107000
0!
08
0R
#107500
1!
18
1R
0-!
1t
0u
1S
0U
1V
1W
0G
1F
0X
0D
1E
1-
0,
#108000
0!
08
0R
#108500
1!
18
1R
1,!
0+!
1-!
0t
0S
1U
1X
0Z
0V
0W
0X
1Z
0[
1V
0F
1[
0E
0-
#109000
0!
08
0R
#109500
1!
18
1R
0-!
1t
1u
0v
1S
0U
0V
0H
1G
1F
0C
1D
1E
1-
1,
0+
#110000
0!
08
0R
#110500
1!
18
1R
0,!
1-!
0t
0S
1U
1V
1W
1X
0Z
0V
0W
0F
0X
1Z
0[
0E
0-
1[
#111000
0!
08
0R
#111500
1!
18
1R
0-!
1t
0u
1S
0U
1Y
1V
1W
0G
1F
1X
0Z
0D
1E
1-
0,
0[
#112000
0!
08
0R
#112500
1!
18
1R
1,!
1+!
0*!
1-!
0t
0S
1U
1[
1\
1b
0X
1Z
0V
0W
0Y
1X
0[
0\
1]
0^
1V
0F
1_
1`
0]
1^
0E
0-
0_
0`
1a
0c
1d
1e
0a
1c
0d
0e
1f
0g
1h
1i
0f
1g
0h
0i
1j
0l
1m
0j
1l
0m
#113000
0!
08
0R
#113500
1!
18
1R
0-!
1t
1u
1v
0w
1S
0U
0V
0I
1H
1G
1F
0B
1C
1D
1E
1-
1,
1+
0*
#114000
0!
08
0R
#114500
1!
18
1R
0,!
1-!
0t
0S
1U
1V
1W
0X
0V
0W
0F
1X
0E
0-
#115000
0!
08
0R
#115500
1!
18
1R
0-!
1t
0u
1S
0U
1V
1W
0G
1F
0X
0D
1E
1-
0,
#116000
0!
08
0R
#116500
1!
18
1R
1,!
0+!
1-!
0t
0S
1U
1X
0Z
0V
0W
0X
1Z
1[
1\
1V
0F
1]
0^
0[
0\
0E
0-
0]
1^
1_
1`
1a
0c
0_
0`
0a
1c
1d
1e
1f
0g
0d
0e
0f
1g
1h
1i
1j
0l
0h
0i
0j
1l
1m
0m
#117000
0!
08
0R
#117500
1!
18
1R
0-!
1t
1u
0v
1S
0U
0V
0H
1G
1F
0C
1D
1E
1-
1,
0+
#118000
0!
08
0R
#118500
1!
18
1R
0,!
1-!
0t
0S
1U
1V
1W
1X
0Z
0V
0W
0F
0X
1Z
1[
1\
0E
0-
1]
0^
0[
0\
0]
1^
1_
1`
1a
0c
0_
0`
0a
1c
1d
1e
1f
0g
0d
0e
0f
1g
1h
1i
1j
0l
0h
0i
0j
1l
1m
0m
#119000
0!
08
0R
#119500
1!
18
1R
0-!
1t
0u
1S
0U
1Y
1n
1V
1W
0G
1F
1X
0Z
1s
0D
1E
1-
0,
1[
1\
1]
0^
1_
1`
1a
0c
1d
1e
1f
0g
1h
1i
1j
0l
1m
#120000
0!
08
0R
#120500
1!
18
1R
0t
0F
0E
0-
#121000
0!
08
0R
#121500
1!
18
1R
#122000
0!
08
0R
#122500
1!
18
1R
#123000
0!
08
0R
#123500
1!
18
1R
#124000
0!
08
0R
#124500
1!
18
1R
#125000
0!
08
0R
#125500
1!
18
1R
#126000
0!
08
0R
#126500
1!
18
1R
#127000
0!
08
0R
#127500
1!
18
1R
#128000
0!
08
0R
#128500
1!
18
1R
#129000
0!
08
0R
#129500
1!
18
1R
#130000
0!
1.
08
19
1T
0R
0V
0X
0Y
0[
0]
0_
0a
0d
0f
0h
0j
0m
0n
0s
#130500
1!
18
1R
1-!
0S
1U
1V
#131000
0!
08
0R
#131500
1!
18
1R
1,!
0-!
1t
1S
0U
0V
0W
1X
1V
1W
1F
0X
1E
1-
#132000
0!
08
0R
#132500
1!
18
1R
1-!
0t
1u
0S
1U
0V
0W
1G
0F
1X
1D
0E
0-
1,
#133000
0!
08
0R
#133500
1!
18
1R
0,!
1+!
0-!
1t
1S
0U
0X
1Z
1V
1W
1X
0Z
1[
0V
1F
0[
1E
1-
#134000
0!
08
0R
#134500
1!
18
1R
1-!
0t
0u
1v
0S
1U
1V
1H
0G
0F
1C
0D
0E
0-
0,
1+
#135000
0!
08
0R
#135500
1!
18
1R
1,!
0-!
1t
1S
0U
0V
0W
0X
1Z
1V
1W
1F
1X
0Z
1[
1E
1-
0[
#136000
0!
08
0R
#136500
1!
18
1R
1-!
0t
1u
0S
1U
1o
0V
0W
1G
0F
0X
1Z
1D
0E
0-
1,
1[
#137000
0!
08
0R
#137500
1!
18
1R
0,!
0+!
1*!
0-!
1t
1S
0U
0[
0\
0b
1X
0Z
1V
1W
0o
0X
1[
1\
1]
0V
1F
0]
1E
1-
#138000
0!
08
0R
#138500
1!
18
1R
1-!
0t
0u
0v
1w
0S
1U
1V
1I
0H
0G
0F
1B
0C
0D
0E
0-
0,
0+
1*
#139000
0!
08
0R
#139500
1!
18
1R
1,!
0-!
1t
1S
0U
0V
0W
1X
1V
1W
1F
0X
1E
1-
#140000
0!
08
0R
#140500
1!
18
1R
1-!
0t
1u
0S
1U
0V
0W
1G
0F
1X
1D
0E
0-
1,
#141000
0!
08
0R
#141500
1!
18
1R
0,!
1+!
0-!
1t
1S
0U
0X
1Z
1V
1W
1X
0Z
0[
0\
0V
1F
1]
1[
1\
1E
1-
0]
#142000
0!
08
0R
#142500
1!
18
1R
1-!
0t
0u
1v
0S
1U
1V
1H
0G
0F
1C
0D
0E
0-
0,
1+
#143000
0!
08
0R
#143500
1!
18
1R
1,!
0-!
1t
1S
0U
0V
0W
0X
1Z
1V
1W
1F
1X
0Z
0[
0\
1E
1-
1]
1[
1\
0]
#144000
0!
08
0R
#144500
1!
18
1R
1-!
0t
1u
0S
1U
1o
0V
0W
1G
0F
0X
1Z
1D
0E
0-
1,
0[
0\
1]
#145000
0!
08
0R
#145500
1!
18
1R
0,!
0+!
0*!
1)!
0-!
1t
1S
0U
0]
1^
1[
1\
1X
0Z
1V
1W
0o
0X
0[
1]
0^
1_
0V
1F
0_
1E
1-
#146000
0!
08
0R
#146500
1!
18
1R
1-!
0t
0u
0v
0w
1x
0S
1U
1V
1J
0I
0H
0G
0F
1A
0B
0C
0D
0E
0-
0,
0+
0*
1)
#147000
0!
08
0R
#147500
1!
18
1R
1,!
0-!
1t
1S
0U
0V
0W
1X
1V
1W
1F
0X
1E
1-
#148000
0!
08
0R
#148500
1!
18
1R
1-!
0t
1u
0S
1U
0V
0W
1G
0F
1X
1D
0E
0-
1,
#149000
0!
08
0R
#149500
1!
18
1R
0,!
1+!
0-!
1t
1S
0U
0X
1Z
1V
1W
1X
0Z
1[
0V
1F
0[
1E
1-
#150000
0!
0.
08
09
0T
0R
1V
0X
1Z
1[
0]
1^
1_
1a
1d
1f
1h
1j
1m
0_
0`
0[
0\
1]
0a
1c
0d
0e
0f
1g
0h
0i
0j
1l
0m
#150500
1!
18
1R
1,!
0+!
1-!
0t
0u
1v
0S
1U
1X
0Z
0V
0W
0X
1Z
1[
1\
1V
1H
0G
0F
0]
0[
0\
1C
0D
0E
0-
0,
1+
1]
#151000
0!
08
0R
#151500
1!
18
1R
0-!
1t
1u
0v
1S
0U
0V
0H
1G
1F
0C
1D
1E
1-
1,
0+
#152000
0!
08
0R
