1ano/2 semestre/LSD/Projeto/Projeto0/simulation/qsim/Controlo.msim.vcd
$comment
	File created using the following command:
		vcd file Controlo.msim.vcd -direction
$end
$date
	Sat May 27 19:23:11 2023
$end
$version
	ModelSim Version 2020.1
$end
$timescale
	1ps
$end

$scope module controloonoff_vhd_vec_tst $end
$var wire 1 ! clk $end
$var wire 1 " OnOff $end
$var wire 1 # Tamb [11] $end
$var wire 1 $ Tamb [10] $end
$var wire 1 % Tamb [9] $end
$var wire 1 & Tamb [8] $end
$var wire 1 ' Tamb [7] $end
$var wire 1 ( Tamb [6] $end
$var wire 1 ) Tamb [5] $end
$var wire 1 * Tamb [4] $end
$var wire 1 + Tamb [3] $end
$var wire 1 , Tamb [2] $end
$var wire 1 - Tamb [1] $end
$var wire 1 . Tamb [0] $end
$var wire 1 / Tref [4] $end
$var wire 1 0 Tref [3] $end
$var wire 1 1 Tref [2] $end
$var wire 1 2 Tref [1] $end
$var wire 1 3 Tref [0] $end

$scope module i1 $end
$var wire 1 4 gnd $end
$var wire 1 5 vcc $end
$var wire 1 6 unknown $end
$var wire 1 7 devoe $end
$var wire 1 8 devclrn $end
$var wire 1 9 devpor $end
$var wire 1 : ww_devoe $end
$var wire 1 ; ww_devclrn $end
$var wire 1 < ww_devpor $end
$var wire 1 = ww_clk $end
$var wire 1 > ww_Tref [4] $end
$var wire 1 ? ww_Tref [3] $end
$var wire 1 @ ww_Tref [2] $end
$var wire 1 A ww_Tref [1] $end
$var wire 1 B ww_Tref [0] $end
$var wire 1 C ww_Tamb [11] $end
$var wire 1 D ww_Tamb [10] $end
$var wire 1 E ww_Tamb [9] $end
$var wire 1 F ww_Tamb [8] $end
$var wire 1 G ww_Tamb [7] $end
$var wire 1 H ww_Tamb [6] $end
$var wire 1 I ww_Tamb [5] $end
$var wire 1 J ww_Tamb [4] $end
$var wire 1 K ww_Tamb [3] $end
$var wire 1 L ww_Tamb [2] $end
$var wire 1 M ww_Tamb [1] $end
$var wire 1 N ww_Tamb [0] $end
$var wire 1 O ww_OnOff $end
$var wire 1 P \OnOff~output_o\ $end
$var wire 1 Q \clk~input_o\ $end
$var wire 1 R \Tamb[8]~input_o\ $end
$var wire 1 S \Tamb[9]~input_o\ $end
$var wire 1 T \Tamb[10]~input_o\ $end
$var wire 1 U \Tamb[11]~input_o\ $end
$var wire 1 V \s_onoff~0_combout\ $end
$var wire 1 W \Tamb[5]~input_o\ $end
$var wire 1 X \Tref[4]~input_o\ $end
$var wire 1 Y \Tref[3]~input_o\ $end
$var wire 1 Z \Tref[2]~input_o\ $end
$var wire 1 [ \Tref[1]~input_o\ $end
$var wire 1 \ \Tref[0]~input_o\ $end
$var wire 1 ] \Toff[1]~6\ $end
$var wire 1 ^ \Toff[2]~8\ $end
$var wire 1 _ \Toff[3]~10\ $end
$var wire 1 ` \Toff[4]~12\ $end
$var wire 1 a \Toff[5]~13_combout\ $end
$var wire 1 b \Tamb[4]~input_o\ $end
$var wire 1 c \Toff[4]~11_combout\ $end
$var wire 1 d \Tamb[3]~input_o\ $end
$var wire 1 e \Toff[3]~9_combout\ $end
$var wire 1 f \Tamb[2]~input_o\ $end
$var wire 1 g \Toff[2]~7_combout\ $end
$var wire 1 h \Tamb[1]~input_o\ $end
$var wire 1 i \Toff[1]~5_combout\ $end
$var wire 1 j \Tamb[0]~input_o\ $end
$var wire 1 k \Toff[0]~15_combout\ $end
$var wire 1 l \LessThan1~1_cout\ $end
$var wire 1 m \LessThan1~3_cout\ $end
$var wire 1 n \LessThan1~5_cout\ $end
$var wire 1 o \LessThan1~7_cout\ $end
$var wire 1 p \LessThan1~9_cout\ $end
$var wire 1 q \LessThan1~10_combout\ $end
$var wire 1 r \Tamb[6]~input_o\ $end
$var wire 1 s \Tamb[7]~input_o\ $end
$var wire 1 t \s_onoff~1_combout\ $end
$var wire 1 u \Ton[1]~6_cout\ $end
$var wire 1 v \Ton[1]~8\ $end
$var wire 1 w \Ton[2]~10\ $end
$var wire 1 x \Ton[3]~12\ $end
$var wire 1 y \Ton[4]~14\ $end
$var wire 1 z \Ton[10]~15_combout\ $end
$var wire 1 { \Ton[4]~13_combout\ $end
$var wire 1 | \LessThan0~0_combout\ $end
$var wire 1 } \LessThan0~1_combout\ $end
$var wire 1 ~ \Ton[3]~11_combout\ $end
$var wire 1 !! \Ton[2]~9_combout\ $end
$var wire 1 "! \Ton[1]~7_combout\ $end
$var wire 1 #! \LessThan0~2_combout\ $end
$var wire 1 $! \LessThan0~3_combout\ $end
$var wire 1 %! \LessThan0~4_combout\ $end
$var wire 1 &! \LessThan0~5_combout\ $end
$var wire 1 '! \LessThan0~6_combout\ $end
$var wire 1 (! \LessThan0~7_combout\ $end
$var wire 1 )! \LessThan0~8_combout\ $end
$var wire 1 *! \s_onoff~2_combout\ $end
$var wire 1 +! \s_onoff~q\ $end
$var wire 1 ,! \OnOff~reg0_q\ $end
$var wire 1 -! Toff [11] $end
$var wire 1 .! Toff [10] $end
$var wire 1 /! Toff [9] $end
$var wire 1 0! Toff [8] $end
$var wire 1 1! Toff [7] $end
$var wire 1 2! Toff [6] $end
$var wire 1 3! Toff [5] $end
$var wire 1 4! Toff [4] $end
$var wire 1 5! Toff [3] $end
$var wire 1 6! Toff [2] $end
$var wire 1 7! Toff [1] $end
$var wire 1 8! Toff [0] $end
$var wire 1 9! Ton [11] $end
$var wire 1 :! Ton [10] $end
$var wire 1 ;! Ton [9] $end
$var wire 1 <! Ton [8] $end
$var wire 1 =! Ton [7] $end
$var wire 1 >! Ton [6] $end
$var wire 1 ?! Ton [5] $end
$var wire 1 @! Ton [4] $end
$var wire 1 A! Ton [3] $end
$var wire 1 B! Ton [2] $end
$var wire 1 C! Ton [1] $end
$var wire 1 D! Ton [0] $end
$upscope $end
$upscope $end
$enddefinitions $end
#0
$dumpvars
0!
0"
04
15
x6
17
18
19
1:
1;
1<
0=
0O
0P
0Q
0R
0S
0T
0U
1V
0W
0X
0Y
1Z
0[
0\
0]
0^
0_
1`
0a
0b
0c
0d
1e
0f
0g
0h
0i
0j
1k
0l
1m
0n
1o
0p
0q
0r
0s
0t
0u
1v
0w
1x
0y
1z
1{
0|
0}
1~
1!!
1"!
0#!
0$!
0%!
0&!
0'!
0(!
0)!
1*!
0+!
0,!
0#
0$
0%
0&
0'
0(
0)
0*
0+
0,
0-
0.
0/
00
11
02
03
0>
0?
1@
0A
0B
0C
0D
0E
0F
0G
0H
0I
0J
0K
0L
0M
0N
x-!
x.!
x/!
x0!
x1!
x2!
03!
04!
05!
06!
07!
08!
x9!
0:!
x;!
x<!
x=!
x>!
x?!
0@!
0A!
0B!
0C!
xD!
$end
#500
1!
1=
1Q
15!
18!
1:!
1@!
1A!
1B!
1C!
1+!
1%!
1l
0o
1p
0m
1n
1q
1t
#1000
0!
0=
0Q
#1500
1!
1=
1Q
1,!
1P
1O
1"
#2000
0!
0=
0Q
#2500
1!
1=
1Q
#3000
0!
0=
0Q
#3500
1!
1=
1Q
#4000
0!
0=
0Q
#4500
1!
1=
1Q
#5000
0!
0=
0Q
#5500
1!
1=
1Q
#6000
0!
0=
0Q
#6500
1!
1=
1Q
#7000
0!
0=
0Q
#7500
1!
1=
1Q
#8000
0!
0=
0Q
#8500
1!
1=
1Q
#9000
0!
0=
0Q
#9500
1!
1=
1Q
#10000
0!
1.
0=
1N
1j
0Q
0l
1m
0n
#10500
1!
1=
1Q
#11000
0!
0=
0Q
#11500
1!
1=
1Q
#12000
0!
0=
0Q
#12500
1!
1=
1Q
#13000
0!
0=
0Q
#13500
1!
1=
1Q
#14000
0!
0=
0Q
#14500
1!
1=
1Q
#15000
0!
0=
0Q
#15500
1!
1=
1Q
#16000
0!
0=
0Q
#16500
1!
1=
1Q
#17000
0!
0=
0Q
#17500
1!
1=
1Q
#18000
0!
0=
0Q
#18500
1!
1=
1Q
#19000
0!
0=
0Q
#19500
1!
1=
1Q
#20000
0!
0.
1-
0=
0N
1M
1h
0j
0Q
1l
#20500
1!
1=
1Q
#21000
0!
0=
0Q
#21500
1!
1=
1Q
#22000
0!
0=
0Q
#22500
1!
1=
1Q
#23000
0!
0=
0Q
#23500
1!
1=
1Q
#24000
0!
0=
0Q
#24500
1!
1=
1Q
#25000
0!
0=
0Q
#25500
1!
1=
1Q
#26000
0!
0=
0Q
#26500
1!
1=
1Q
#27000
0!
0=
0Q
#27500
1!
1=
1Q
#28000
0!
0=
0Q
#28500
1!
1=
1Q
#29000
0!
0=
0Q
#29500
1!
1=
1Q
#30000
0!
1.
0=
1N
1j
0Q
0l
#30500
1!
1=
1Q
#31000
0!
0=
0Q
#31500
1!
1=
1Q
#32000
0!
0=
0Q
#32500
1!
1=
1Q
#33000
0!
0=
0Q
#33500
1!
1=
1Q
#34000
0!
0=
0Q
#34500
1!
1=
1Q
#35000
0!
0=
0Q
#35500
1!
1=
1Q
#36000
0!
0=
0Q
#36500
1!
1=
1Q
#37000
0!
0=
0Q
#37500
1!
1=
1Q
#38000
0!
0=
0Q
#38500
1!
1=
1Q
#39000
0!
0=
0Q
#39500
1!
1=
1Q
#40000
0!
0.
0-
1,
0=
0N
0M
1L
1f
0h
0j
0Q
1l
0m
#40500
1!
1=
1Q
#41000
0!
0=
0Q
#41500
1!
1=
1Q
#42000
0!
0=
0Q
#42500
1!
1=
1Q
#43000
0!
0=
0Q
#43500
1!
1=
1Q
#44000
0!
0=
0Q
#44500
1!
1=
1Q
#45000
0!
0=
0Q
#45500
1!
1=
1Q
#46000
0!
0=
0Q
#46500
1!
1=
1Q
#47000
0!
0=
0Q
#47500
1!
1=
1Q
#48000
0!
0=
0Q
#48500
1!
1=
1Q
#49000
0!
0=
0Q
#49500
1!
1=
1Q
#50000
0!
1.
0=
1N
1j
0Q
0l
1m
#50500
1!
1=
1Q
#51000
0!
0=
0Q
#51500
1!
1=
1Q
#52000
0!
0=
0Q
#52500
1!
1=
1Q
#53000
0!
0=
0Q
#53500
1!
1=
1Q
#54000
0!
0=
0Q
#54500
1!
1=
1Q
#55000
0!
0=
0Q
#55500
1!
1=
1Q
#56000
0!
0=
0Q
#56500
1!
1=
1Q
#57000
0!
0=
0Q
#57500
1!
1=
1Q
#58000
0!
0=
0Q
#58500
1!
1=
1Q
#59000
0!
0=
0Q
#59500
1!
1=
1Q
#60000
0!
0.
1-
0=
0N
1M
1h
0j
0Q
1l
#60500
1!
1=
1Q
#61000
0!
0=
0Q
#61500
1!
1=
1Q
#62000
0!
0=
0Q
#62500
1!
1=
1Q
#63000
0!
0=
0Q
#63500
1!
1=
1Q
#64000
0!
0=
0Q
#64500
1!
1=
1Q
#65000
0!
0=
0Q
#65500
1!
1=
1Q
#66000
0!
0=
0Q
#66500
1!
1=
1Q
#67000
0!
0=
0Q
#67500
1!
1=
1Q
#68000
0!
0=
0Q
#68500
1!
1=
1Q
#69000
0!
0=
0Q
#69500
1!
1=
1Q
#70000
0!
1.
0=
1N
1j
0Q
0l
#70500
1!
1=
1Q
#71000
0!
0=
0Q
#71500
1!
1=
1Q
#72000
0!
0=
0Q
#72500
1!
1=
1Q
#73000
0!
0=
0Q
#73500
1!
1=
1Q
#74000
0!
0=
0Q
#74500
1!
1=
1Q
#75000
0!
0=
0Q
#75500
1!
1=
1Q
#76000
0!
0=
0Q
#76500
1!
1=
1Q
#77000
0!
0=
0Q
#77500
1!
1=
1Q
#78000
0!
0=
0Q
#78500
1!
1=
1Q
#79000
0!
0=
0Q
#79500
1!
1=
1Q
#80000
0!
0.
0-
0,
1+
0=
0N
0M
0L
1K
1d
0f
0h
0j
0Q
1l
1o
0p
0m
1n
0q
0t
0o
1p
1q
1t
#80500
1!
1=
1Q
#81000
0!
0=
0Q
#81500
1!
1=
1Q
#82000
0!
0=
0Q
#82500
1!
1=
1Q
#83000
0!
0=
0Q
#83500
1!
1=
1Q
#84000
0!
0=
0Q
#84500
1!
1=
1Q
#85000
0!
0=
0Q
#85500
1!
1=
1Q
#86000
0!
0=
0Q
#86500
1!
1=
1Q
#87000
0!
0=
0Q
#87500
1!
1=
1Q
#88000
0!
0=
0Q
#88500
1!
1=
1Q
#89000
0!
0=
0Q
#89500
1!
1=
1Q
#90000
0!
1.
0=
1N
1j
0Q
0l
1m
0n
1o
0p
0q
0t
#90500
1!
1=
1Q
#91000
0!
0=
0Q
#91500
1!
1=
1Q
#92000
0!
0=
0Q
#92500
1!
1=
1Q
#93000
0!
0=
0Q
#93500
1!
1=
1Q
#94000
0!
0=
0Q
#94500
1!
1=
1Q
#95000
0!
0=
0Q
#95500
1!
1=
1Q
#96000
0!
0=
0Q
#96500
1!
1=
1Q
#97000
0!
0=
0Q
#97500
1!
1=
1Q
#98000
0!
0=
0Q
#98500
1!
1=
1Q
#99000
0!
0=
0Q
#99500
1!
1=
1Q
#100000
0!
0.
1-
0=
0N
1M
1h
0j
0Q
1l
#100500
1!
1=
1Q
#101000
0!
0=
0Q
#101500
1!
1=
1Q
#102000
0!
0=
0Q
#102500
1!
1=
1Q
#103000
0!
0=
0Q
#103500
1!
1=
1Q
#104000
0!
0=
0Q
#104500
1!
1=
1Q
#105000
0!
0=
0Q
#105500
1!
1=
1Q
#106000
0!
0=
0Q
#106500
1!
1=
1Q
#107000
0!
0=
0Q
#107500
1!
1=
1Q
#108000
0!
0=
0Q
#108500
1!
1=
1Q
#109000
0!
0=
0Q
#109500
1!
1=
1Q
#110000
0!
1.
0=
1N
1j
0Q
0l
#110500
1!
1=
1Q
#111000
0!
0=
0Q
#111500
1!
1=
1Q
#112000
0!
0=
0Q
#112500
1!
1=
1Q
#113000
0!
0=
0Q
#113500
1!
1=
1Q
#114000
0!
0=
0Q
#114500
1!
1=
1Q
#115000
0!
0=
0Q
#115500
1!
1=
1Q
#116000
0!
0=
0Q
#116500
1!
1=
1Q
#117000
0!
0=
0Q
#117500
1!
1=
1Q
#118000
0!
0=
0Q
#118500
1!
1=
1Q
#119000
0!
0=
0Q
#119500
1!
1=
1Q
#120000
0!
0.
0-
1,
0=
0N
0M
1L
1f
0h
0j
0Q
1l
0m
#120500
1!
1=
1Q
#121000
0!
0=
0Q
#121500
1!
1=
1Q
#122000
0!
0=
0Q
#122500
1!
1=
1Q
#123000
0!
0=
0Q
#123500
1!
1=
1Q
#124000
0!
0=
0Q
#124500
1!
1=
1Q
#125000
0!
0=
0Q
#125500
1!
1=
1Q
#126000
0!
0=
0Q
#126500
1!
1=
1Q
#127000
0!
0=
0Q
#127500
1!
1=
1Q
#128000
0!
0=
0Q
#128500
1!
1=
1Q
#129000
0!
0=
0Q
#129500
1!
1=
1Q
#130000
0!
1.
0=
1N
1j
0Q
0l
1m
#130500
1!
1=
1Q
#131000
0!
0=
0Q
#131500
1!
1=
1Q
#132000
0!
0=
0Q
#132500
1!
1=
1Q
#133000
0!
0=
0Q
#133500
1!
1=
1Q
#134000
0!
0=
0Q
#134500
1!
1=
1Q
#135000
0!
0=
0Q
#135500
1!
1=
1Q
#136000
0!
0=
0Q
#136500
1!
1=
1Q
#137000
0!
0=
0Q
#137500
1!
1=
1Q
#138000
0!
0=
0Q
#138500
1!
1=
1Q
#139000
0!
0=
0Q
#139500
1!
1=
1Q
#140000
0!
0.
1-
0=
0N
1M
1h
0j
0Q
1l
#140500
1!
1=
1Q
#141000
0!
0=
0Q
#141500
1!
1=
1Q
#142000
0!
0=
0Q
#142500
1!
1=
1Q
#143000
0!
0=
0Q
#143500
1!
1=
1Q
#144000
0!
0=
0Q
#144500
1!
1=
1Q
#145000
0!
0=
0Q
#145500
1!
1=
1Q
#146000
0!
0=
0Q
#146500
1!
1=
1Q
#147000
0!
0=
0Q
#147500
1!
1=
1Q
#148000
0!
0=
0Q
#148500
1!
1=
1Q
#149000
0!
0=
0Q
#149500
1!
1=
1Q
#150000
0!
1.
0=
1N
1j
0Q
0l
#150500
1!
1=
1Q
#151000
0!
0=
0Q
#151500
1!
1=
1Q
#152000
0!
0=
0Q
#152500
1!
1=
1Q
#153000
0!
0=
0Q
#153500
1!
1=
1Q
#154000
0!
0=
0Q
#154500
1!
1=
1Q
#155000
0!
0=
0Q
#155500
1!
1=
1Q
#156000
0!
0=
0Q
#156500
1!
1=
1Q
#157000
0!
0=
0Q
#157500
1!
1=
1Q
#158000
0!
0=
0Q
#158500
1!
1=
1Q
#159000
0!
0=
0Q
#159500
1!
1=
1Q
#160000
0!
0.
0-
0,
0+
1*
0=
0N
0M
0L
0K
1J
1b
0d
0f
0h
0j
0Q
1l
0o
0m
1n
#160500
1!
1=
1Q
#161000
0!
0=
0Q
#161500
1!
1=
1Q
#162000
0!
0=
0Q
#162500
1!
1=
1Q
#163000
0!
0=
0Q
#163500
1!
1=
1Q
#164000
0!
0=
0Q
#164500
1!
1=
1Q
#165000
0!
0=
0Q
#165500
1!
1=
1Q
#166000
0!
0=
0Q
#166500
1!
1=
1Q
#167000
0!
0=
0Q
#167500
1!
1=
1Q
#168000
0!
0=
0Q
#168500
1!
1=
1Q
#169000
0!
0=
0Q
#169500
1!
1=
1Q
#170000
0!
1.
0=
1N
1j
0Q
0l
1m
0n
#170500
1!
1=
1Q
#171000
0!
0=
0Q
#171500
1!
1=
1Q
#172000
0!
0=
0Q
#172500
1!
1=
1Q
#173000
0!
0=
0Q
#173500
1!
1=
1Q
#174000
0!
0=
0Q
#174500
1!
1=
1Q
#175000
0!
0=
0Q
#175500
1!
1=
1Q
#176000
0!
0=
0Q
#176500
1!
1=
1Q
#177000
0!
0=
0Q
#177500
1!
1=
1Q
#178000
0!
0=
0Q
#178500
1!
1=
1Q
#179000
0!
0=
0Q
#179500
1!
1=
1Q
#180000
0!
0.
1-
0=
0N
1M
1h
0j
0Q
1l
#180500
1!
1=
1Q
#181000
0!
0=
0Q
#181500
1!
1=
1Q
#182000
0!
0=
0Q
#182500
1!
1=
1Q
#183000
0!
0=
0Q
#183500
1!
1=
1Q
#184000
0!
0=
0Q
#184500
1!
1=
1Q
#185000
0!
0=
0Q
#185500
1!
1=
1Q
#186000
0!
0=
0Q
#186500
1!
1=
1Q
#187000
0!
0=
0Q
#187500
1!
1=
1Q
#188000
0!
0=
0Q
#188500
1!
1=
1Q
#189000
0!
0=
0Q
#189500
1!
1=
1Q
#190000
0!
1.
0=
1N
1j
0Q
0l
#190500
1!
1=
1Q
#191000
0!
0=
0Q
#191500
1!
1=
1Q
#192000
0!
0=
0Q
#192500
1!
1=
1Q
#193000
0!
0=
0Q
#193500
1!
1=
1Q
#194000
0!
0=
0Q
#194500
1!
1=
1Q
#195000
0!
0=
0Q
#195500
1!
1=
1Q
#196000
0!
0=
0Q
#196500
1!
1=
1Q
#197000
0!
0=
0Q
#197500
1!
1=
1Q
#198000
0!
0=
0Q
#198500
1!
1=
1Q
#199000
0!
0=
0Q
#199500
1!
1=
1Q
#200000
0!
0.
0-
1,
0=
0N
0M
1L
1f
0h
0j
0Q
1l
0m
#200500
1!
1=
1Q
#201000
0!
0=
0Q
#201500
1!
1=
1Q
#202000
0!
0=
0Q
#202500
1!
1=
1Q
#203000
0!
0=
0Q
#203500
1!
1=
1Q
#204000
0!
0=
0Q
#204500
1!
1=
1Q
#205000
0!
0=
0Q
#205500
1!
1=
1Q
#206000
0!
0=
0Q
#206500
1!
1=
1Q
#207000
0!
0=
0Q
#207500
1!
1=
1Q
#208000
0!
0=
0Q
#208500
1!
1=
1Q
#209000
0!
0=
0Q
#209500
1!
1=
1Q
#210000
0!
1.
0=
1N
1j
0Q
0l
1m
#210500
1!
1=
1Q
#211000
0!
0=
0Q
#211500
1!
1=
1Q
#212000
0!
0=
0Q
#212500
1!
1=
1Q
#213000
0!
0=
0Q
#213500
1!
1=
1Q
#214000
0!
0=
0Q
#214500
1!
1=
1Q
#215000
0!
0=
0Q
#215500
1!
1=
1Q
#216000
0!
0=
0Q
#216500
1!
1=
1Q
#217000
0!
0=
0Q
#217500
1!
1=
1Q
#218000
0!
0=
0Q
#218500
1!
1=
1Q
#219000
0!
0=
0Q
#219500
1!
1=
1Q
#220000
0!
0.
1-
0=
0N
1M
1h
0j
0Q
1l
#220500
1!
1=
1Q
#221000
0!
0=
0Q
#221500
1!
1=
1Q
#222000
0!
0=
0Q
#222500
1!
1=
1Q
#223000
0!
0=
0Q
#223500
1!
1=
1Q
#224000
0!
0=
0Q
#224500
1!
1=
1Q
#225000
0!
0=
0Q
#225500
1!
1=
1Q
#226000
0!
0=
0Q
#226500
1!
1=
1Q
#227000
0!
0=
0Q
#227500
1!
1=
1Q
#228000
0!
0=
0Q
#228500
1!
1=
1Q
#229000
0!
0=
0Q
#229500
1!
1=
1Q
#230000
0!
1.
0=
1N
1j
0Q
0l
#230500
1!
1=
1Q
#231000
0!
0=
0Q
#231500
1!
1=
1Q
#232000
0!
0=
0Q
#232500
1!
1=
1Q
#233000
0!
0=
0Q
#233500
1!
1=
1Q
#234000
0!
0=
0Q
#234500
1!
1=
1Q
#235000
0!
0=
0Q
#235500
1!
1=
1Q
#236000
0!
0=
0Q
#236500
1!
1=
1Q
#237000
0!
0=
0Q
#237500
1!
1=
1Q
#238000
0!
0=
0Q
#238500
1!
1=
1Q
#239000
0!
0=
0Q
#239500
1!
1=
1Q
#240000
0!
0.
0-
0,
1+
0=
0N
0M
0L
1K
1d
0f
0h
0j
0Q
1l
1o
0m
1n
0o
#240500
1!
1=
1Q
#241000
0!
0=
0Q
#241500
1!
1=
1Q
#242000
0!
0=
0Q
#242500
1!
1=
1Q
#243000
0!
0=
0Q
#243500
1!
1=
1Q
#244000
0!
0=
0Q
#244500
1!
1=
1Q
#245000
0!
0=
0Q
#245500
1!
1=
1Q
#246000
0!
0=
0Q
#246500
1!
1=
1Q
#247000
0!
0=
0Q
#247500
1!
1=
1Q
#248000
0!
0=
0Q
#248500
1!
1=
1Q
#249000
0!
0=
0Q
#249500
1!
1=
1Q
#250000
0!
1.
0=
1N
1j
0Q
0l
1m
0n
1o
#250500
1!
1=
1Q
#251000
0!
0=
0Q
#251500
1!
1=
1Q
#252000
0!
0=
0Q
#252500
1!
1=
1Q
#253000
0!
0=
0Q
#253500
1!
1=
1Q
#254000
0!
0=
0Q
#254500
1!
1=
1Q
#255000
0!
0=
0Q
#255500
1!
1=
1Q
#256000
0!
0=
0Q
#256500
1!
1=
1Q
#257000
0!
0=
0Q
#257500
1!
1=
1Q
#258000
0!
0=
0Q
#258500
1!
1=
1Q
#259000
0!
0=
0Q
#259500
1!
1=
1Q
#260000
0!
0.
1-
0=
0N
1M
1h
0j
0Q
1l
#260500
1!
1=
1Q
#261000
0!
0=
0Q
#261500
1!
1=
1Q
#262000
0!
0=
0Q
#262500
1!
1=
1Q
#263000
0!
0=
0Q
#263500
1!
1=
1Q
#264000
0!
0=
0Q
#264500
1!
1=
1Q
#265000
0!
0=
0Q
#265500
1!
1=
1Q
#266000
0!
0=
0Q
#266500
1!
1=
1Q
#267000
0!
0=
0Q
#267500
1!
1=
1Q
#268000
0!
0=
0Q
#268500
1!
1=
1Q
#269000
0!
0=
0Q
#269500
1!
1=
1Q
#270000
0!
0-
0+
0*
1/
01
0=
0M
0K
0J
0@
1>
1X
0Z
0b
0d
0h
0Q
0m
0o
1g
1^
0!!
1c
0{
1y
0z
0e
1p
1n
1q
1t
#270500
1!
1=
1Q
14!
05!
16!
0:!
0@!
0B!
0%!
#271000
0!
0=
0Q
#271500
1!
1=
1Q
#272000
0!
0=
0Q
#272500
1!
1=
1Q
#273000
0!
0=
0Q
#273500
1!
1=
1Q
#274000
0!
0=
0Q
#274500
1!
1=
1Q
#275000
0!
0=
0Q
#275500
1!
1=
1Q
#276000
0!
0=
0Q
#276500
1!
1=
1Q
#277000
0!
0=
0Q
#277500
1!
1=
1Q
#278000
0!
0=
0Q
#278500
1!
1=
1Q
#279000
0!
0=
0Q
#279500
1!
1=
1Q
#280000
0!
1.
0=
1N
1j
0Q
0l
1m
#280500
1!
1=
1Q
#281000
0!
0=
0Q
#281500
1!
1=
1Q
#282000
0!
0=
0Q
#282500
1!
1=
1Q
#283000
0!
0=
0Q
#283500
1!
1=
1Q
#284000
0!
0=
0Q
#284500
1!
1=
1Q
#285000
0!
0=
0Q
#285500
1!
1=
1Q
#286000
0!
0=
0Q
#286500
1!
1=
1Q
#287000
0!
0=
0Q
#287500
1!
1=
1Q
#288000
0!
0=
0Q
#288500
1!
1=
1Q
#289000
0!
0=
0Q
#289500
1!
1=
1Q
#290000
0!
0.
1-
0=
0N
1M
1h
0j
0Q
1l
#290500
1!
1=
1Q
#291000
0!
0=
0Q
#291500
1!
1=
1Q
#292000
0!
0=
0Q
#292500
1!
1=
1Q
#293000
0!
0=
0Q
#293500
1!
1=
1Q
#294000
0!
0=
0Q
#294500
1!
1=
1Q
#295000
0!
0=
0Q
#295500
1!
1=
1Q
#296000
0!
0=
0Q
#296500
1!
1=
1Q
#297000
0!
0=
0Q
#297500
1!
1=
1Q
#298000
0!
0=
0Q
#298500
1!
1=
1Q
#299000
0!
0=
0Q
#299500
1!
1=
1Q
#300000
0!
1.
0=
1N
1j
0Q
0l
#300500
1!
1=
1Q
#301000
0!
0=
0Q
#301500
1!
1=
1Q
#302000
0!
0=
0Q
#302500
1!
1=
1Q
#303000
0!
0=
0Q
#303500
1!
1=
1Q
#304000
0!
0=
0Q
#304500
1!
1=
1Q
#305000
0!
0=
0Q
#305500
1!
1=
1Q
#306000
0!
0=
0Q
#306500
1!
1=
1Q
#307000
0!
0=
0Q
#307500
1!
1=
1Q
#308000
0!
0=
0Q
#308500
1!
1=
1Q
#309000
0!
0=
0Q
#309500
1!
1=
1Q
#310000
0!
0.
0-
1,
0=
0N
0M
1L
1f
0h
0j
0Q
1l
0n
1$!
1o
0m
1n
0o
#310500
1!
1=
1Q
#311000
0!
0=
0Q
#311500
1!
1=
1Q
#312000
0!
0=
0Q
#312500
1!
1=
1Q
#313000
0!
0=
0Q
#313500
1!
1=
1Q
#314000
0!
0=
0Q
#314500
1!
1=
1Q
#315000
0!
0=
0Q
#315500
1!
1=
1Q
#316000
0!
0=
0Q
#316500
1!
1=
1Q
#317000
0!
0=
0Q
#317500
1!
1=
1Q
#318000
0!
0=
0Q
#318500
1!
1=
1Q
#319000
0!
0=
0Q
#319500
1!
1=
1Q
#320000
0!
1.
0=
1N
1j
0Q
0l
1m
0n
1o
#320500
1!
1=
1Q
#321000
0!
0=
0Q
#321500
1!
1=
1Q
#322000
0!
0=
0Q
#322500
1!
1=
1Q
#323000
0!
0=
0Q
#323500
1!
1=
1Q
#324000
0!
0=
0Q
#324500
1!
1=
1Q
#325000
0!
0=
0Q
#325500
1!
1=
1Q
#326000
0!
0=
0Q
#326500
1!
1=
1Q
#327000
0!
0=
0Q
#327500
1!
1=
1Q
#328000
0!
0=
0Q
#328500
1!
1=
1Q
#329000
0!
0=
0Q
#329500
1!
1=
1Q
#330000
0!
0.
1-
0=
0N
1M
1h
0j
0Q
1l
#330500
1!
1=
1Q
#331000
0!
0=
0Q
#331500
1!
1=
1Q
#332000
0!
0=
0Q
#332500
1!
1=
1Q
#333000
0!
0=
0Q
#333500
1!
1=
1Q
#334000
0!
0=
0Q
#334500
1!
1=
1Q
#335000
0!
0=
0Q
#335500
1!
1=
1Q
#336000
0!
0=
0Q
#336500
1!
1=
1Q
#337000
0!
0=
0Q
#337500
1!
1=
1Q
#338000
0!
0=
0Q
#338500
1!
1=
1Q
#339000
0!
0=
0Q
#339500
1!
1=
1Q
#340000
0!
1.
0=
1N
1j
0Q
0l
#340500
1!
1=
1Q
#341000
0!
0=
0Q
#341500
1!
1=
1Q
#342000
0!
0=
0Q
#342500
1!
1=
1Q
#343000
0!
0=
0Q
#343500
1!
1=
1Q
#344000
0!
0=
0Q
#344500
1!
1=
1Q
#345000
0!
0=
0Q
#345500
1!
1=
1Q
#346000
0!
0=
0Q
#346500
1!
1=
1Q
#347000
0!
0=
0Q
#347500
1!
1=
1Q
#348000
0!
0=
0Q
#348500
1!
1=
1Q
#349000
0!
0=
0Q
#349500
1!
1=
1Q
#350000
0!
0.
0-
0,
1+
0=
0N
0M
0L
1K
1d
0f
0h
0j
0Q
1l
1n
0$!
1&!
1'!
0&!
0m
0'!
1)!
0)!
#350500
1!
1=
1Q
#351000
0!
0=
0Q
#351500
1!
1=
1Q
#352000
0!
0=
0Q
#352500
1!
1=
1Q
#353000
0!
0=
0Q
#353500
1!
1=
1Q
#354000
0!
0=
0Q
#354500
1!
1=
1Q
#355000
0!
0=
0Q
#355500
1!
1=
1Q
#356000
0!
0=
0Q
#356500
1!
1=
1Q
#357000
0!
0=
0Q
#357500
1!
1=
1Q
#358000
0!
0=
0Q
#358500
1!
1=
1Q
#359000
0!
0=
0Q
#359500
1!
1=
1Q
#360000
0!
1.
0=
1N
1j
0Q
0l
1m
#360500
1!
1=
1Q
#361000
0!
0=
0Q
#361500
1!
1=
1Q
#362000
0!
0=
0Q
#362500
1!
1=
1Q
#363000
0!
0=
0Q
#363500
1!
1=
1Q
#364000
0!
0=
0Q
#364500
1!
1=
1Q
#365000
0!
0=
0Q
#365500
1!
1=
1Q
#366000
0!
0=
0Q
#366500
1!
1=
1Q
#367000
0!
0=
0Q
#367500
1!
1=
1Q
#368000
0!
0=
0Q
#368500
1!
1=
1Q
#369000
0!
0=
0Q
#369500
1!
1=
1Q
#370000
0!
0.
1-
0=
0N
1M
1h
0j
0Q
1l
#370500
1!
1=
1Q
#371000
0!
0=
0Q
#371500
1!
1=
1Q
#372000
0!
0=
0Q
#372500
1!
1=
1Q
#373000
0!
0=
0Q
#373500
1!
1=
1Q
#374000
0!
0=
0Q
#374500
1!
1=
1Q
#375000
0!
0=
0Q
#375500
1!
1=
1Q
#376000
0!
0=
0Q
#376500
1!
1=
1Q
#377000
0!
0=
0Q
