1ano/2 semestre/LSD/Aula5/Parte3/simulation/qsim/TimerN_Demo.msim.vcd
$comment
	File created using the following command:
		vcd file TimerN_Demo.msim.vcd -direction
$end
$date
	Tue Apr 11 11:14:53 2023
$end
$version
	ModelSim Version 2020.1
$end
$timescale
	1ps
$end

$scope module timern_vhd_vec_tst $end
$var wire 1 ! clk $end
$var wire 1 " en $end
$var wire 1 # rst $end
$var wire 1 $ s_count [4] $end
$var wire 1 % s_count [3] $end
$var wire 1 & s_count [2] $end
$var wire 1 ' s_count [1] $end
$var wire 1 ( s_count [0] $end
$var wire 1 ) start $end
$var wire 1 * TimerOut $end

$scope module i1 $end
$var wire 1 + gnd $end
$var wire 1 , vcc $end
$var wire 1 - unknown $end
$var wire 1 . devoe $end
$var wire 1 / devclrn $end
$var wire 1 0 devpor $end
$var wire 1 1 ww_devoe $end
$var wire 1 2 ww_devclrn $end
$var wire 1 3 ww_devpor $end
$var wire 1 4 ww_clk $end
$var wire 1 5 ww_rst $end
$var wire 1 6 ww_en $end
$var wire 1 7 ww_start $end
$var wire 1 8 ww_s_count [4] $end
$var wire 1 9 ww_s_count [3] $end
$var wire 1 : ww_s_count [2] $end
$var wire 1 ; ww_s_count [1] $end
$var wire 1 < ww_s_count [0] $end
$var wire 1 = ww_TimerOut $end
$var wire 1 > \rst~inputclkctrl_INCLK_bus\ [3] $end
$var wire 1 ? \rst~inputclkctrl_INCLK_bus\ [2] $end
$var wire 1 @ \rst~inputclkctrl_INCLK_bus\ [1] $end
$var wire 1 A \rst~inputclkctrl_INCLK_bus\ [0] $end
$var wire 1 B \clk~inputclkctrl_INCLK_bus\ [3] $end
$var wire 1 C \clk~inputclkctrl_INCLK_bus\ [2] $end
$var wire 1 D \clk~inputclkctrl_INCLK_bus\ [1] $end
$var wire 1 E \clk~inputclkctrl_INCLK_bus\ [0] $end
$var wire 1 F \s_count[0]~output_o\ $end
$var wire 1 G \s_count[1]~output_o\ $end
$var wire 1 H \s_count[2]~output_o\ $end
$var wire 1 I \s_count[3]~output_o\ $end
$var wire 1 J \s_count[4]~output_o\ $end
$var wire 1 K \TimerOut~output_o\ $end
$var wire 1 L \clk~input_o\ $end
$var wire 1 M \clk~inputclkctrl_outclk\ $end
$var wire 1 N \count[0]~5_combout\ $end
$var wire 1 O \rst~input_o\ $end
$var wire 1 P \rst~inputclkctrl_outclk\ $end
$var wire 1 Q \start~input_o\ $end
$var wire 1 R \en~input_o\ $end
$var wire 1 S \count[0]~6\ $end
$var wire 1 T \count[1]~11_combout\ $end
$var wire 1 U \count[0]~10_combout\ $end
$var wire 1 V \count[1]~12\ $end
$var wire 1 W \count[2]~13_combout\ $end
$var wire 1 X \count[2]~14\ $end
$var wire 1 Y \count[3]~15_combout\ $end
$var wire 1 Z \count[3]~16\ $end
$var wire 1 [ \count[4]~17_combout\ $end
$var wire 1 \ \count~8_combout\ $end
$var wire 1 ] \count_en~0_combout\ $end
$var wire 1 ^ \count_en~q\ $end
$var wire 1 _ \count~7_combout\ $end
$var wire 1 ` \count~9_combout\ $end
$var wire 1 a count [4] $end
$var wire 1 b count [3] $end
$var wire 1 c count [2] $end
$var wire 1 d count [1] $end
$var wire 1 e count [0] $end
$var wire 1 f \ALT_INV_rst~inputclkctrl_outclk\ $end
$upscope $end
$upscope $end
$enddefinitions $end
#0
$dumpvars
0!
0"
1#
1)
0*
0+
1,
x-
1.
1/
10
11
12
13
04
15
06
17
0=
0F
0G
0H
0I
0J
0K
0L
0M
1N
1O
1P
1Q
0R
0S
0T
0U
1V
0W
0X
0Y
1Z
0[
0\
0]
0^
1_
0`
0f
0$
0%
0&
0'
0(
08
09
0:
0;
0<
0a
0b
0c
0d
0e
1B
1C
1D
0E
1>
1?
1@
1A
$end
#10000
1!
14
1L
1E
1M
#20000
0!
04
0L
0E
0M
#30000
1!
14
1L
1E
1M
#40000
0!
0#
1"
04
05
16
1R
0O
0L
0A
0E
1U
1]
0M
0P
1f
#50000
1!
14
1L
1E
1M
1^
1e
0N
1S
1\
1T
1F
1K
1<
1=
1(
1*
#60000
0!
04
0L
0E
0M
#70000
1!
14
1L
1E
1M
1d
0e
1N
0S
0T
0V
0_
1W
1T
1V
0F
1G
0W
0<
1;
0(
1'
#80000
0!
04
0L
0E
0M
#90000
1!
14
1L
1E
1M
1e
0N
1S
1_
0T
0V
1F
1W
1<
1(
#100000
0!
04
0L
0E
0M
#110000
1!
14
1L
1E
1M
0d
1c
0e
1N
0S
0W
1X
0\
1T
1V
1W
0X
1Y
0T
0F
1H
0G
0Y
0<
1:
0;
0(
0'
1&
#120000
0!
04
0L
0E
0M
#130000
1!
14
1L
1E
1M
1e
0N
1S
1T
1F
1<
1(
#140000
0!
04
0L
0E
0M
#150000
1!
14
1L
1E
1M
1d
0e
1N
0S
0T
0V
0_
0]
1`
0W
1X
1T
1V
0F
1G
1W
0X
1Y
0<
1;
0(
1'
0Y
#160000
0!
04
0L
0E
0M
#170000
1!
14
1L
1E
1M
0d
0c
0^
0W
0T
1_
1]
0`
0K
0H
0G
0=
0:
0;
0*
0'
0&
#180000
0!
04
0L
0E
0M
#190000
1!
14
1L
1E
1M
1^
1e
0N
1S
1\
1T
1F
1K
1<
1=
1(
1*
#200000
0!
04
0L
0E
0M
#210000
1!
14
1L
1E
1M
1d
0e
1N
0S
0T
0V
0_
1W
1T
1V
0F
1G
0W
0<
1;
0(
1'
#220000
0!
04
0L
0E
0M
#230000
1!
14
1L
1E
1M
1e
0N
1S
1_
0T
0V
1F
1W
1<
1(
#240000
0!
04
0L
0E
0M
#250000
1!
14
1L
1E
1M
0d
1c
0e
1N
0S
0W
1X
0\
1T
1V
1W
0X
1Y
0T
0F
1H
0G
0Y
0<
1:
0;
0(
0'
1&
#260000
0!
04
0L
0E
0M
#270000
1!
14
1L
1E
1M
1e
0N
1S
1T
1F
1<
1(
#280000
0!
04
0L
0E
0M
#290000
1!
14
1L
1E
1M
1d
0e
1N
0S
0T
0V
0_
0]
1`
0W
1X
1T
1V
0F
1G
1W
0X
1Y
0<
1;
0(
1'
0Y
#300000
0!
0"
04
06
0R
0L
0E
0U
1]
0M
#310000
1!
14
1L
1E
1M
#320000
0!
04
0L
0E
0M
#330000
1!
14
1L
1E
1M
#340000
0!
04
0L
0E
0M
#350000
1!
14
1L
1E
1M
#360000
0!
1"
04
16
1R
0L
0E
1U
0]
0M
#370000
1!
14
1L
1E
1M
0d
0c
0^
0W
0T
1_
1]
0`
0K
0H
0G
0=
0:
0;
0*
0'
0&
#380000
0!
04
0L
0E
0M
#390000
1!
14
1L
1E
1M
1^
1e
0N
1S
1\
1T
1F
1K
1<
1=
1(
1*
#400000
0!
04
0L
0E
0M
#410000
1!
14
1L
1E
1M
1d
0e
1N
0S
0T
0V
0_
1W
1T
1V
0F
1G
0W
0<
1;
0(
1'
#420000
0!
04
0L
0E
0M
#430000
1!
14
1L
1E
1M
1e
0N
1S
1_
0T
0V
1F
1W
1<
1(
#440000
0!
04
0L
0E
0M
#450000
1!
14
1L
1E
1M
0d
1c
0e
1N
0S
0W
1X
0\
1T
1V
1W
0X
1Y
0T
0F
1H
0G
0Y
0<
1:
0;
0(
0'
1&
#460000
0!
04
0L
0E
0M
#470000
1!
14
1L
1E
1M
1e
0N
1S
1T
1F
1<
1(
#480000
0!
04
0L
0E
0M
#490000
1!
14
1L
1E
1M
1d
0e
1N
0S
0T
0V
0_
0]
1`
0W
1X
1T
1V
0F
1G
1W
0X
1Y
0<
1;
0(
1'
0Y
#500000
0!
04
0L
0E
0M
#510000
1!
14
1L
1E
1M
0d
0c
0^
0W
0T
1_
1]
0`
0K
0H
0G
0=
0:
0;
0*
0'
0&
#520000
0!
04
0L
0E
0M
#530000
1!
14
1L
1E
1M
1^
1e
0N
1S
1\
1T
1F
1K
1<
1=
1(
1*
#540000
0!
04
0L
0E
0M
#550000
1!
14
1L
1E
1M
1d
0e
1N
0S
0T
0V
0_
1W
1T
1V
0F
1G
0W
0<
1;
0(
1'
#560000
0!
04
0L
0E
0M
#570000
1!
14
1L
1E
1M
1e
0N
1S
1_
0T
0V
1F
1W
1<
1(
#580000
0!
04
0L
0E
0M
#590000
1!
14
1L
1E
1M
0d
1c
0e
1N
0S
0W
1X
0\
1T
1V
1W
0X
1Y
0T
0F
1H
0G
0Y
0<
1:
0;
0(
0'
1&
#600000
0!
04
0L
0E
0M
#610000
1!
14
1L
1E
1M
1e
0N
1S
1T
1F
1<
1(
#620000
0!
04
0L
0E
0M
#630000
1!
14
1L
1E
1M
1d
0e
1N
0S
0T
0V
0_
0]
1`
0W
1X
1T
1V
0F
1G
1W
0X
1Y
0<
1;
0(
1'
0Y
#640000
0!
04
0L
0E
0M
#650000
1!
14
1L
1E
1M
0d
0c
0^
0W
0T
1_
1]
0`
0K
0H
0G
0=
0:
0;
0*
0'
0&
#660000
0!
04
0L
0E
0M
#670000
1!
14
1L
1E
1M
1^
1e
0N
1S
1\
1T
1F
1K
1<
1=
1(
1*
#680000
0!
04
0L
0E
0M
#690000
1!
14
1L
1E
1M
1d
0e
1N
0S
0T
0V
0_
1W
1T
1V
0F
1G
0W
0<
1;
0(
1'
#700000
0!
04
0L
0E
0M
#710000
1!
14
1L
1E
1M
1e
0N
1S
1_
0T
0V
1F
1W
1<
1(
#720000
0!
04
0L
0E
0M
#730000
1!
14
1L
1E
1M
0d
1c
0e
1N
0S
0W
1X
0\
1T
1V
1W
0X
1Y
0T
0F
1H
0G
0Y
0<
1:
0;
0(
0'
1&
#740000
0!
04
0L
0E
0M
#750000
1!
14
1L
1E
1M
1e
0N
1S
1T
1F
1<
1(
#760000
0!
04
0L
0E
0M
#770000
1!
14
1L
1E
1M
1d
0e
1N
0S
0T
0V
0_
0]
1`
0W
1X
1T
1V
0F
1G
1W
0X
1Y
0<
1;
0(
1'
0Y
#780000
0!
04
0L
0E
0M
#790000
1!
14
1L
1E
1M
0d
0c
0^
0W
0T
1_
1]
0`
0K
0H
0G
0=
0:
0;
0*
0'
0&
#800000
0!
0"
04
06
0R
0L
0E
0U
0]
0M
#810000
1!
14
1L
1E
1M
#820000
0!
04
0L
0E
0M
#830000
1!
14
1L
1E
1M
#840000
0!
04
0L
0E
0M
#850000
1!
14
1L
1E
1M
#860000
0!
04
0L
0E
0M
#870000
1!
14
1L
1E
1M
#880000
0!
04
0L
0E
0M
#890000
1!
14
1L
1E
1M
#900000
0!
04
0L
0E
0M
#910000
1!
14
1L
1E
1M
#920000
0!
04
0L
0E
0M
#930000
1!
14
1L
1E
1M
#940000
0!
04
0L
0E
0M
#950000
1!
14
1L
1E
1M
#960000
0!
04
0L
0E
0M
#970000
1!
14
1L
1E
1M
#980000
0!
04
0L
0E
0M
#990000
1!
14
1L
1E
1M
