1ano/1 semestre/ISD/Testes/Praticas 1/simulation/qsim/Mux_8_1.msim.vcd
$comment
	File created using the following command:
		vcd file Mux_8_1.msim.vcd -direction
$end
$date
	Mon Dec 05 12:07:34 2022
$end
$version
	ModelSim Version 2020.1
$end
$timescale
	1ps
$end

$scope module block2_vhd_vec_tst $end
$var wire 1 ! A $end
$var wire 1 " B $end
$var wire 1 # C $end
$var wire 1 $ D $end
$var wire 1 % F $end

$scope module i1 $end
$var wire 1 & gnd $end
$var wire 1 ' vcc $end
$var wire 1 ( unknown $end
$var wire 1 ) devoe $end
$var wire 1 * devclrn $end
$var wire 1 + devpor $end
$var wire 1 , ww_devoe $end
$var wire 1 - ww_devclrn $end
$var wire 1 . ww_devpor $end
$var wire 1 / ww_F $end
$var wire 1 0 ww_D $end
$var wire 1 1 ww_C $end
$var wire 1 2 ww_B $end
$var wire 1 3 ww_A $end
$var wire 1 4 \F~output_o\ $end
$var wire 1 5 \D~input_o\ $end
$var wire 1 6 \A~input_o\ $end
$var wire 1 7 \B~input_o\ $end
$var wire 1 8 \C~input_o\ $end
$var wire 1 9 \inst|inst2|22~0_combout\ $end
$upscope $end
$upscope $end
$enddefinitions $end
#0
$dumpvars
0!
0"
0#
0$
0%
0&
1'
x(
1)
1*
1+
1,
1-
1.
0/
00
01
02
03
04
05
06
07
08
09
$end
#50000
1$
10
15
#100000
0$
1#
00
11
18
05
19
14
1/
1%
#150000
1$
10
15
#200000
0$
0#
1"
00
01
12
17
08
05
09
04
0/
0%
#250000
1$
10
15
19
14
1/
1%
#300000
0$
1#
00
11
18
05
#350000
1$
10
15
09
04
0/
0%
#400000
0$
0#
0"
1!
00
01
02
13
16
07
08
05
19
14
1/
1%
#450000
1$
10
15
#500000
0$
1#
00
11
18
05
#550000
1$
10
15
09
04
0/
0%
#600000
0$
0#
1"
00
01
12
17
08
05
#650000
1$
10
15
19
14
1/
1%
#700000
0$
1#
00
11
18
05
09
04
0/
0%
#750000
1$
10
15
19
14
1/
1%
#800000
0$
0#
0"
0!
00
01
02
03
06
07
08
05
09
04
0/
0%
