1ano/2 semestre/LSD/Testes/simulation/qsim/TestesDemo.msim.vcd
$comment
	File created using the following command:
		vcd file TestesDemo.msim.vcd -direction
$end
$date
	Mon Apr 10 17:35:40 2023
$end
$version
	ModelSim Version 2020.1
$end
$timescale
	1ps
$end

$scope module cntspecial_vhd_vec_tst $end
$var wire 1 ! clk $end
$var wire 1 " count [3] $end
$var wire 1 # count [2] $end
$var wire 1 $ count [1] $end
$var wire 1 % count [0] $end
$var wire 1 & enable $end
$var wire 1 ' reset $end

$scope module i1 $end
$var wire 1 ( gnd $end
$var wire 1 ) vcc $end
$var wire 1 * unknown $end
$var wire 1 + devoe $end
$var wire 1 , devclrn $end
$var wire 1 - devpor $end
$var wire 1 . ww_devoe $end
$var wire 1 / ww_devclrn $end
$var wire 1 0 ww_devpor $end
$var wire 1 1 ww_clk $end
$var wire 1 2 ww_reset $end
$var wire 1 3 ww_enable $end
$var wire 1 4 ww_count [3] $end
$var wire 1 5 ww_count [2] $end
$var wire 1 6 ww_count [1] $end
$var wire 1 7 ww_count [0] $end
$var wire 1 8 \count[0]~output_o\ $end
$var wire 1 9 \count[1]~output_o\ $end
$var wire 1 : \count[2]~output_o\ $end
$var wire 1 ; \count[3]~output_o\ $end
$var wire 1 < \clk~input_o\ $end
$var wire 1 = \reset~input_o\ $end
$var wire 1 > \s_count~3_combout\ $end
$var wire 1 ? \enable~input_o\ $end
$var wire 1 @ \s_count[0]~2_combout\ $end
$var wire 1 A \Add0~0_combout\ $end
$var wire 1 B \s_count~4_combout\ $end
$var wire 1 C \s_count~5_combout\ $end
$var wire 1 D \s_count[0]~0_combout\ $end
$var wire 1 E \s_count~1_combout\ $end
$var wire 1 F s_count [3] $end
$var wire 1 G s_count [2] $end
$var wire 1 H s_count [1] $end
$var wire 1 I s_count [0] $end
$upscope $end
$upscope $end
$enddefinitions $end
#0
$dumpvars
0!
0&
0'
0(
1)
x*
1+
1,
1-
1.
1/
10
01
02
03
08
09
0:
0;
0<
0=
1>
0?
0@
1A
0B
0C
1D
1E
04
05
06
07
0F
0G
0H
0I
0"
0#
0$
0%
$end
#10000
1!
11
1<
#20000
0!
1'
01
12
1=
0<
0>
1@
0E
#30000
1!
11
1<
#40000
0!
0'
01
02
0=
0<
1>
0@
1E
#50000
1!
11
1<
#60000
0!
1&
01
13
1?
0<
1@
#70000
1!
11
1<
1H
1I
0E
0A
1B
18
19
17
16
1%
1$
#80000
0!
01
0<
#90000
1!
11
1<
1G
0I
0>
1E
0B
1C
08
1:
07
15
0%
1#
#100000
0!
01
0<
#110000
1!
11
1<
0H
0G
1F
1I
0E
1B
18
1;
0:
09
17
14
05
06
1%
0$
0#
1"
#120000
0!
01
0<
#130000
1!
11
1<
1G
0I
1>
1A
1E
0B
0C
0D
0>
0E
08
1:
07
15
0%
1#
#140000
0!
01
0<
#150000
1!
11
1<
0G
0F
1D
1>
1E
0;
0:
04
05
0#
0"
#160000
0!
01
0<
#170000
1!
11
1<
1H
1I
0E
0A
1B
18
19
17
16
1%
1$
#180000
0!
01
0<
#190000
1!
11
1<
1G
0I
0>
1E
0B
1C
08
1:
07
15
0%
1#
#200000
0!
01
0<
#210000
1!
11
1<
0H
0G
1F
1I
0E
1B
18
1;
0:
09
17
14
05
06
1%
0$
0#
1"
#220000
0!
01
0<
#230000
1!
11
1<
1G
0I
1>
1A
1E
0B
0C
0D
0>
0E
08
1:
07
15
0%
1#
#240000
0!
01
0<
#250000
1!
11
1<
0G
0F
1D
1>
1E
0;
0:
04
05
0#
0"
#260000
0!
01
0<
#270000
1!
11
1<
1H
1I
0E
0A
1B
18
19
17
16
1%
1$
#280000
0!
01
0<
#290000
1!
11
1<
1G
0I
0>
1E
0B
1C
08
1:
07
15
0%
1#
#300000
0!
01
0<
#310000
1!
1'
11
12
1=
1<
0H
0G
1F
1I
0C
0E
18
1;
0:
09
17
14
05
06
1%
0$
0#
1"
#320000
0!
01
0<
#330000
1!
11
1<
0F
0I
1A
08
0;
07
04
0%
0"
#340000
0!
01
0<
#350000
1!
11
1<
#360000
0!
0&
01
03
0?
0<
#370000
1!
11
1<
#380000
0!
01
0<
#390000
1!
1&
11
13
1?
1<
#400000
0!
01
0<
#410000
1!
0'
11
02
0=
1<
1>
1E
#420000
0!
01
0<
#430000
1!
11
1<
1H
1I
0E
0A
1B
18
19
17
16
1%
1$
#440000
0!
0&
01
03
0?
0<
0@
#450000
1!
11
1<
#460000
0!
01
0<
#470000
1!
11
1<
#480000
0!
1'
01
12
1=
0<
0>
1@
0B
#490000
1!
11
1<
0H
0I
1A
08
09
07
06
0%
0$
#500000
0!
0'
01
02
0=
0<
1>
0@
1E
#510000
1!
11
1<
#520000
0!
1&
01
13
1?
0<
1@
#530000
1!
11
1<
1H
1I
0E
0A
1B
18
19
17
16
1%
1$
#540000
0!
01
0<
#550000
1!
11
1<
1G
0I
0>
1E
0B
1C
08
1:
07
15
0%
1#
#560000
0!
01
0<
#570000
1!
11
1<
0H
0G
1F
1I
0E
1B
18
1;
0:
09
17
14
05
06
1%
0$
0#
1"
#580000
0!
01
0<
#590000
1!
11
1<
1G
0I
1>
1A
1E
0B
0C
0D
0>
0E
08
1:
07
15
0%
1#
#600000
0!
01
0<
#610000
1!
11
1<
0G
0F
1D
1>
1E
0;
0:
04
05
0#
0"
#620000
0!
01
0<
#630000
1!
11
1<
1H
1I
0E
0A
1B
18
19
17
16
1%
1$
#640000
0!
01
0<
#650000
1!
11
1<
1G
0I
0>
1E
0B
1C
08
1:
07
15
0%
1#
#660000
0!
01
0<
#670000
1!
11
1<
0H
0G
1F
1I
0E
1B
18
1;
0:
09
17
14
05
06
1%
0$
0#
1"
#680000
0!
01
0<
#690000
1!
11
1<
1G
0I
1>
1A
1E
0B
0C
0D
0>
0E
08
1:
07
15
0%
1#
#700000
0!
01
0<
#710000
1!
11
1<
0G
0F
1D
1>
1E
0;
0:
04
05
0#
0"
#720000
0!
01
0<
#730000
1!
11
1<
1H
1I
0E
0A
1B
18
19
17
16
1%
1$
#740000
0!
01
0<
#750000
1!
11
1<
1G
0I
0>
1E
0B
1C
08
1:
07
15
0%
1#
#760000
0!
01
0<
#770000
1!
11
1<
0H
0G
1F
1I
0E
1B
18
1;
0:
09
17
14
05
06
1%
0$
0#
1"
#780000
0!
01
0<
#790000
1!
11
1<
1G
0I
1>
1A
1E
0B
0C
0D
0>
0E
08
1:
07
15
0%
1#
#800000
0!
01
0<
#810000
1!
11
1<
0G
0F
1D
1>
1E
0;
0:
04
05
0#
0"
#820000
0!
01
0<
#830000
1!
11
1<
1H
1I
0E
0A
1B
18
19
17
16
1%
1$
#840000
0!
01
0<
#850000
1!
11
1<
1G
0I
0>
1E
0B
1C
08
1:
07
15
0%
1#
#860000
0!
01
0<
#870000
1!
11
1<
0H
0G
1F
1I
0E
1B
18
1;
0:
09
17
14
05
06
1%
0$
0#
1"
#880000
0!
01
0<
#890000
1!
11
1<
1G
0I
1>
1A
1E
0B
0C
0D
0>
0E
08
1:
07
15
0%
1#
#900000
0!
01
0<
#910000
1!
11
1<
0G
0F
1D
1>
1E
0;
0:
04
05
0#
0"
#920000
0!
01
0<
#930000
1!
11
1<
1H
1I
0E
0A
1B
18
19
17
16
1%
1$
#940000
0!
01
0<
#950000
1!
11
1<
1G
0I
0>
1E
0B
1C
08
1:
07
15
0%
1#
#960000
0!
01
0<
#970000
1!
11
1<
0H
0G
1F
1I
0E
1B
18
1;
0:
09
17
14
05
06
1%
0$
0#
1"
#980000
0!
01
0<
#990000
1!
11
1<
1G
0I
1>
1A
1E
0B
0C
0D
0>
0E
08
1:
07
15
0%
1#
