1ano/1 semestre/ISD/P/Praticas/1/simulation/qsim/DecoderDemo.msim.vcd
$comment
	File created using the following command:
		vcd file DecoderDemo.msim.vcd -direction
$end
$date
	Tue Nov 22 14:13:06 2022
$end
$version
	ModelSim Version 2020.1
$end
$timescale
	1ps
$end

$scope module decoderdemo2_vhd_vec_tst $end
$var wire 1 ! E0_L $end
$var wire 1 " E1 $end
$var wire 1 # X0 $end
$var wire 1 $ X1 $end
$var wire 1 % X2 $end
$var wire 1 & X3 $end
$var wire 1 ' y0 $end
$var wire 1 ( y1 $end
$var wire 1 ) y2 $end
$var wire 1 * y3 $end
$var wire 1 + y4 $end
$var wire 1 , y5 $end
$var wire 1 - y6 $end
$var wire 1 . y7 $end
$var wire 1 / y8 $end
$var wire 1 0 y9 $end
$var wire 1 1 y10 $end
$var wire 1 2 y11 $end
$var wire 1 3 y12 $end
$var wire 1 4 y13 $end
$var wire 1 5 y14 $end
$var wire 1 6 y15 $end

$scope module i1 $end
$var wire 1 7 gnd $end
$var wire 1 8 vcc $end
$var wire 1 9 unknown $end
$var wire 1 : devoe $end
$var wire 1 ; devclrn $end
$var wire 1 < devpor $end
$var wire 1 = ww_devoe $end
$var wire 1 > ww_devclrn $end
$var wire 1 ? ww_devpor $end
$var wire 1 @ ww_y15 $end
$var wire 1 A ww_E1 $end
$var wire 1 B ww_E0_L $end
$var wire 1 C ww_X3 $end
$var wire 1 D ww_X2 $end
$var wire 1 E ww_X1 $end
$var wire 1 F ww_X0 $end
$var wire 1 G ww_y14 $end
$var wire 1 H ww_y13 $end
$var wire 1 I ww_y12 $end
$var wire 1 J ww_y11 $end
$var wire 1 K ww_y10 $end
$var wire 1 L ww_y9 $end
$var wire 1 M ww_y8 $end
$var wire 1 N ww_y7 $end
$var wire 1 O ww_y6 $end
$var wire 1 P ww_y4 $end
$var wire 1 Q ww_y3 $end
$var wire 1 R ww_y2 $end
$var wire 1 S ww_y1 $end
$var wire 1 T ww_y0 $end
$var wire 1 U ww_y5 $end
$var wire 1 V \y15~output_o\ $end
$var wire 1 W \y14~output_o\ $end
$var wire 1 X \y13~output_o\ $end
$var wire 1 Y \y12~output_o\ $end
$var wire 1 Z \y11~output_o\ $end
$var wire 1 [ \y10~output_o\ $end
$var wire 1 \ \y9~output_o\ $end
$var wire 1 ] \y8~output_o\ $end
$var wire 1 ^ \y7~output_o\ $end
$var wire 1 _ \y6~output_o\ $end
$var wire 1 ` \y4~output_o\ $end
$var wire 1 a \y3~output_o\ $end
$var wire 1 b \y2~output_o\ $end
$var wire 1 c \y1~output_o\ $end
$var wire 1 d \y0~output_o\ $end
$var wire 1 e \y5~output_o\ $end
$var wire 1 f \X1~input_o\ $end
$var wire 1 g \X0~input_o\ $end
$var wire 1 h \X2~input_o\ $end
$var wire 1 i \inst|inst1|inst4~3_combout\ $end
$var wire 1 j \E0_L~input_o\ $end
$var wire 1 k \X3~input_o\ $end
$var wire 1 l \E1~input_o\ $end
$var wire 1 m \inst|inst1|inst4~192_combout\ $end
$var wire 1 n \inst|inst1|inst4~15_combout\ $end
$var wire 1 o \inst|inst1|inst4~193_combout\ $end
$var wire 1 p \inst|inst1|inst4~27_combout\ $end
$var wire 1 q \inst|inst1|inst4~194_combout\ $end
$var wire 1 r \inst|inst1|inst4~39_combout\ $end
$var wire 1 s \inst|inst1|inst4~195_combout\ $end
$var wire 1 t \inst|inst1|inst4~51_combout\ $end
$var wire 1 u \inst|inst1|inst4~196_combout\ $end
$var wire 1 v \inst|inst1|inst4~63_combout\ $end
$var wire 1 w \inst|inst1|inst4~197_combout\ $end
$var wire 1 x \inst|inst1|inst4~75_combout\ $end
$var wire 1 y \inst|inst1|inst4~198_combout\ $end
$var wire 1 z \inst|inst1|inst4~87_combout\ $end
$var wire 1 { \inst|inst1|inst4~199_combout\ $end
$var wire 1 | \inst|inst1|inst4~200_combout\ $end
$var wire 1 } \inst|inst1|inst4~201_combout\ $end
$var wire 1 ~ \inst|inst1|inst4~202_combout\ $end
$var wire 1 !! \inst|inst1|inst4~203_combout\ $end
$var wire 1 "! \inst|inst1|inst4~204_combout\ $end
$var wire 1 #! \inst|inst1|inst4~205_combout\ $end
$var wire 1 $! \inst|inst1|inst4~206_combout\ $end
$var wire 1 %! \inst|inst1|inst4~207_combout\ $end
$upscope $end
$upscope $end
$enddefinitions $end
#0
$dumpvars
0!
1"
0#
0$
0%
0&
1'
0(
0)
0*
0+
0,
0-
0.
0/
00
01
02
03
04
05
06
07
18
x9
1:
1;
1<
1=
1>
1?
0@
1A
0B
0C
0D
0E
0F
0G
0H
0I
0J
0K
0L
0M
0N
0O
0P
0Q
0R
0S
1T
0U
0V
0W
0X
0Y
0Z
0[
0\
0]
0^
0_
0`
0a
0b
0c
1d
0e
0f
0g
0h
0i
0j
0k
1l
0m
0n
0o
0p
0q
0r
0s
0t
0u
0v
0w
0x
0y
1z
0{
0|
0}
0~
0!!
0"!
0#!
1$!
0%!
$end
#50000
1#
1F
1g
1x
0z
0$!
1#!
1c
0d
1S
0T
1(
0'
#100000
0#
1$
0F
1E
1f
0g
1v
0x
0#!
1"!
1b
0c
1R
0S
1)
0(
#150000
1#
1F
1g
1t
0v
0"!
1!!
1a
0b
1Q
0R
1*
0)
#200000
0#
0$
1%
0F
0E
1D
1h
0f
0g
1r
0t
0!!
1~
1`
0a
1P
0Q
1+
0*
#250000
1#
1F
1g
1p
0r
0~
1%!
1e
0`
1U
0P
1,
0+
#300000
0#
1$
0F
1E
1f
0g
1n
0p
0%!
1}
1_
0e
1O
0U
1-
0,
#350000
1#
1F
1g
1i
0n
0}
1|
1^
0_
1N
0O
1.
0-
#400000
0#
0$
0%
1&
0F
0E
0D
1C
1k
0h
0f
0g
0i
1z
1m
0|
1{
0m
0^
1V
0N
1@
0V
1]
0.
16
0@
1M
06
1/
#450000
1#
1F
1g
1x
0z
0{
1y
1\
0]
1L
0M
10
0/
#500000
0#
1$
0F
1E
1f
0g
1v
0x
0y
1w
1[
0\
1K
0L
11
00
#550000
1#
1F
1g
1t
0v
0w
1u
1Z
0[
1J
0K
12
01
#600000
0#
0$
1%
0F
0E
1D
1h
0f
0g
1r
0t
0u
1s
1Y
0Z
1I
0J
13
02
#650000
1#
1F
1g
1p
0r
0s
1q
1X
0Y
1H
0I
14
03
#700000
0#
1$
0F
1E
1f
0g
1n
0p
0q
1o
1W
0X
1G
0H
15
04
#750000
1#
1F
1g
1i
0n
0o
1m
1V
0W
1@
0G
16
05
#800000
0#
0$
0%
0&
0F
0E
0D
0C
0k
0h
0f
0g
0i
1z
0m
1|
1$!
0|
1^
0V
1N
0@
0^
1d
1.
06
0N
1T
0.
1'
