1ano/2 semestre/LSD/Miniprojeto/simulation/qsim/ContadorDemo.msim.vcd
$comment
	File created using the following command:
		vcd file ContadorDemo.msim.vcd -direction
$end
$date
	Thu Apr 13 13:57:46 2023
$end
$version
	ModelSim Version 2020.1
$end
$timescale
	1ps
$end

$scope module timern_vhd_vec_tst $end
$var wire 1 ! clk $end
$var wire 1 " en $end
$var wire 1 # rst $end
$var wire 1 $ s_count [4] $end
$var wire 1 % s_count [3] $end
$var wire 1 & s_count [2] $end
$var wire 1 ' s_count [1] $end
$var wire 1 ( s_count [0] $end
$var wire 1 ) TimerOut $end

$scope module i1 $end
$var wire 1 * gnd $end
$var wire 1 + vcc $end
$var wire 1 , unknown $end
$var wire 1 - devoe $end
$var wire 1 . devclrn $end
$var wire 1 / devpor $end
$var wire 1 0 ww_devoe $end
$var wire 1 1 ww_devclrn $end
$var wire 1 2 ww_devpor $end
$var wire 1 3 ww_clk $end
$var wire 1 4 ww_rst $end
$var wire 1 5 ww_en $end
$var wire 1 6 ww_s_count [4] $end
$var wire 1 7 ww_s_count [3] $end
$var wire 1 8 ww_s_count [2] $end
$var wire 1 9 ww_s_count [1] $end
$var wire 1 : ww_s_count [0] $end
$var wire 1 ; ww_TimerOut $end
$var wire 1 < \s_count[0]~output_o\ $end
$var wire 1 = \s_count[1]~output_o\ $end
$var wire 1 > \s_count[2]~output_o\ $end
$var wire 1 ? \s_count[3]~output_o\ $end
$var wire 1 @ \s_count[4]~output_o\ $end
$var wire 1 A \TimerOut~output_o\ $end
$var wire 1 B \clk~input_o\ $end
$var wire 1 C \Add0~0_combout\ $end
$var wire 1 D \rst~input_o\ $end
$var wire 1 E \en~input_o\ $end
$var wire 1 F \Add0~1\ $end
$var wire 1 G \Add0~2_combout\ $end
$var wire 1 H \Add0~3\ $end
$var wire 1 I \Add0~4_combout\ $end
$var wire 1 J \Add0~5\ $end
$var wire 1 K \Add0~6_combout\ $end
$var wire 1 L \Add0~7\ $end
$var wire 1 M \Add0~8_combout\ $end
$var wire 1 N \Equal0~0_combout\ $end
$var wire 1 O \count~0_combout\ $end
$var wire 1 P count [4] $end
$var wire 1 Q count [3] $end
$var wire 1 R count [2] $end
$var wire 1 S count [1] $end
$var wire 1 T count [0] $end
$var wire 1 U \ALT_INV_rst~input_o\ $end
$upscope $end
$upscope $end
$enddefinitions $end
#0
$dumpvars
0!
1"
0#
0)
0*
1+
x,
1-
1.
1/
10
11
12
03
04
15
0;
0<
0=
0>
0?
0@
0A
0B
1C
0D
1E
0F
0G
1H
0I
0J
0K
1L
0M
0N
0O
1U
06
07
08
09
0:
0P
0Q
0R
0S
0T
0$
0%
0&
0'
0(
$end
#20000
1!
13
1B
1T
0C
1F
1G
1<
1:
1(
#40000
0!
03
0B
#60000
1!
13
1B
0T
1S
0G
0H
1C
0F
1G
1H
1I
1=
0<
0I
19
0:
0(
1'
#80000
0!
03
0B
#100000
1!
13
1B
1T
0C
1F
0G
0H
1<
1I
1:
1(
#120000
0!
03
0B
#140000
1!
13
1B
0T
0S
1R
0I
1J
1G
1H
1C
0F
0G
1I
0J
1K
1>
0=
0<
0K
18
09
0:
0(
0'
1&
#160000
0!
03
0B
#180000
1!
13
1B
1T
0C
1F
1G
1<
1:
1(
#200000
0!
03
0B
#220000
1!
13
1B
0T
1S
0G
0H
1C
0F
1G
1H
0I
1J
1=
0<
1K
1I
0J
19
0:
0(
1'
0K
#240000
0!
03
0B
#260000
1!
13
1B
1T
0C
1F
0G
0H
1<
0I
1J
1:
1(
1K
#280000
0!
03
0B
#300000
1!
13
1B
0T
0S
0R
1Q
0K
0L
1I
0J
1G
1H
1C
0F
0G
0I
1K
1L
1M
1?
0>
0=
0<
1O
0M
17
08
09
0:
0(
0'
0&
1%
0O
#320000
0!
03
0B
#340000
1!
13
1B
1T
0C
1F
1G
1<
1:
1(
#360000
0!
03
0B
#380000
1!
13
1B
0T
1S
0G
0H
1C
0F
1G
1H
1I
1=
0<
0I
19
0:
0(
1'
#400000
0!
03
0B
#420000
1!
13
1B
1T
0C
1F
0G
0H
1<
1I
1:
1(
#440000
0!
03
0B
#460000
1!
13
1B
0T
0S
1R
0I
1J
1G
1H
1C
0F
0G
1I
0J
0K
0L
1>
0=
0<
1M
1K
1L
18
09
0:
0(
0'
1&
0M
1O
0O
#480000
0!
03
0B
#500000
1!
13
1B
1T
0C
1F
1N
1G
1<
1:
1(
#520000
0!
03
0B
#540000
1!
13
1B
0T
1S
0G
0H
1O
1C
0F
0N
0O
1G
1H
0I
1J
1=
0<
0K
0L
1I
0J
19
0:
0(
1'
1K
1L
1M
1O
0M
0O
#560000
0!
03
0B
#580000
1!
13
1B
1T
0C
1F
1N
1O
0G
0H
1<
0I
1J
1:
1(
0K
0L
1M
0O
#600000
0!
03
0B
#620000
1!
13
1B
0T
0S
0R
0Q
1K
1L
1I
0J
1G
1H
1O
1C
0F
0N
0G
0I
0K
0M
0?
0>
0=
0<
0O
07
08
09
0:
0(
0'
0&
0%
#640000
0!
03
0B
#660000
1!
13
1B
1T
0C
1F
1G
1<
1:
1(
#680000
0!
03
0B
#700000
1!
13
1B
0T
1S
0G
0H
1C
0F
1G
1H
1I
1=
0<
0I
19
0:
0(
1'
#720000
0!
03
0B
#740000
1!
13
1B
1T
0C
1F
0G
0H
1<
1I
1:
1(
#760000
0!
03
0B
#780000
1!
13
1B
0T
0S
1R
0I
1J
1G
1H
1C
0F
0G
1I
0J
1K
1>
0=
0<
0K
18
09
0:
0(
0'
1&
#800000
0!
03
0B
#820000
1!
13
1B
1T
0C
1F
1G
1<
1:
1(
#840000
0!
03
0B
#860000
1!
13
1B
0T
1S
0G
0H
1C
0F
1G
1H
0I
1J
1=
0<
1K
1I
0J
19
0:
0(
1'
0K
#880000
0!
03
0B
#900000
1!
13
1B
1T
0C
1F
0G
0H
1<
0I
1J
1:
1(
1K
#920000
0!
03
0B
#940000
1!
13
1B
0T
0S
0R
1Q
0K
0L
1I
0J
1G
1H
1C
0F
0G
0I
1K
1L
1M
1?
0>
0=
0<
1O
0M
17
08
09
0:
0(
0'
0&
1%
0O
#960000
0!
03
0B
#980000
1!
13
1B
1T
0C
1F
1G
1<
1:
1(
