1ano/1 semestre/ISD/P/Praticas/2/simulation/qsim/MuxDemo.msim.vcd
$comment
	File created using the following command:
		vcd file MuxDemo.msim.vcd -direction
$end
$date
	Fri Nov 25 12:45:25 2022
$end
$version
	ModelSim Version 2020.1
$end
$timescale
	1ps
$end

$scope module muxdemo_vhd_vec_tst $end
$var wire 1 ! S $end
$var wire 1 " x0 $end
$var wire 1 # x1 $end
$var wire 1 $ Y $end

$scope module i1 $end
$var wire 1 % gnd $end
$var wire 1 & vcc $end
$var wire 1 ' unknown $end
$var wire 1 ( devoe $end
$var wire 1 ) devclrn $end
$var wire 1 * devpor $end
$var wire 1 + ww_devoe $end
$var wire 1 , ww_devclrn $end
$var wire 1 - ww_devpor $end
$var wire 1 . ww_Y $end
$var wire 1 / ww_S $end
$var wire 1 0 ww_x1 $end
$var wire 1 1 ww_x0 $end
$var wire 1 2 \Y~output_o\ $end
$var wire 1 3 \x1~input_o\ $end
$var wire 1 4 \x0~input_o\ $end
$var wire 1 5 \S~input_o\ $end
$var wire 1 6 \inst|inst~0_combout\ $end
$upscope $end
$upscope $end
$enddefinitions $end
#0
$dumpvars
0!
0"
0#
0$
0%
1&
x'
1(
1)
1*
1+
1,
1-
0.
0/
00
01
02
03
04
05
06
$end
#100000
1#
10
13
#200000
0#
1"
00
11
14
03
16
12
1.
1$
#300000
1#
10
13
#400000
0#
0"
1!
00
01
1/
15
04
03
06
02
0.
0$
#500000
1#
10
13
16
12
1.
1$
#600000
0#
1"
00
11
14
03
06
02
0.
0$
#700000
1#
10
13
16
12
1.
1$
#800000
0#
0"
0!
00
01
0/
05
04
03
06
02
0.
0$
