1ano/2 semestre/LSD/Aula5/Parte2/simulation/qsim/AccN_Demo.msim.vcd
$comment
	File created using the following command:
		vcd file AccN_Demo.msim.vcd -direction
$end
$date
	Wed Mar 22 11:30:14 2023
$end
$version
	ModelSim Version 2020.1
$end
$timescale
	1ps
$end

$scope module addern_vhd_vec_tst $end
$var wire 1 ! operand0 [3] $end
$var wire 1 " operand0 [2] $end
$var wire 1 # operand0 [1] $end
$var wire 1 $ operand0 [0] $end
$var wire 1 % operand1 [3] $end
$var wire 1 & operand1 [2] $end
$var wire 1 ' operand1 [1] $end
$var wire 1 ( operand1 [0] $end
$var wire 1 ) result [3] $end
$var wire 1 * result [2] $end
$var wire 1 + result [1] $end
$var wire 1 , result [0] $end

$scope module i1 $end
$var wire 1 - gnd $end
$var wire 1 . vcc $end
$var wire 1 / unknown $end
$var wire 1 0 devoe $end
$var wire 1 1 devclrn $end
$var wire 1 2 devpor $end
$var wire 1 3 ww_devoe $end
$var wire 1 4 ww_devclrn $end
$var wire 1 5 ww_devpor $end
$var wire 1 6 ww_operand0 [3] $end
$var wire 1 7 ww_operand0 [2] $end
$var wire 1 8 ww_operand0 [1] $end
$var wire 1 9 ww_operand0 [0] $end
$var wire 1 : ww_operand1 [3] $end
$var wire 1 ; ww_operand1 [2] $end
$var wire 1 < ww_operand1 [1] $end
$var wire 1 = ww_operand1 [0] $end
$var wire 1 > ww_result [3] $end
$var wire 1 ? ww_result [2] $end
$var wire 1 @ ww_result [1] $end
$var wire 1 A ww_result [0] $end
$var wire 1 B \result[0]~output_o\ $end
$var wire 1 C \result[1]~output_o\ $end
$var wire 1 D \result[2]~output_o\ $end
$var wire 1 E \result[3]~output_o\ $end
$var wire 1 F \operand0[0]~input_o\ $end
$var wire 1 G \operand1[0]~input_o\ $end
$var wire 1 H \result~0_combout\ $end
$var wire 1 I \operand0[1]~input_o\ $end
$var wire 1 J \operand1[1]~input_o\ $end
$var wire 1 K \result~1_combout\ $end
$var wire 1 L \operand0[2]~input_o\ $end
$var wire 1 M \operand1[2]~input_o\ $end
$var wire 1 N \result~2_combout\ $end
$var wire 1 O \operand0[3]~input_o\ $end
$var wire 1 P \operand1[3]~input_o\ $end
$var wire 1 Q \result~3_combout\ $end
$upscope $end
$upscope $end
$enddefinitions $end
#0
$dumpvars
0-
1.
x/
10
11
12
13
14
15
1B
0C
1D
1E
0F
1G
1H
0I
0J
0K
1L
0M
1N
0O
1P
1Q
0!
1"
0#
0$
1%
0&
0'
1(
06
17
08
09
1:
0;
0<
1=
1>
1?
0@
1A
1)
1*
0+
1,
$end
#100000
1!
0(
16
0=
0G
1O
0Q
0H
0B
0E
0A
0>
0,
0)
#200000
0"
1#
0%
1'
18
07
1<
0:
0P
1J
0L
1I
0N
1Q
1E
0D
1>
0?
0*
1)
#300000
0#
1%
0!
08
06
1:
1P
0O
0I
1K
1C
1@
1+
#400000
1#
0%
1!
1"
0'
18
17
16
0<
0:
0P
0J
1O
1L
1I
1N
1D
1?
1*
#500000
1%
0"
1'
1$
1<
1:
19
07
0L
1F
1P
1J
0K
0Q
1H
0N
0D
1B
0E
0C
0?
1A
0>
0@
1,
0+
0*
0)
#600000
1"
0$
0#
1(
09
08
17
1=
1G
1L
0I
0F
1K
1N
1D
1C
1?
1@
1+
1*
#700000
0"
1#
0%
0!
18
07
06
0:
0P
0O
0L
1I
0K
0N
0D
0C
0?
0@
0+
0*
#800000
1%
0(
0'
0=
0<
1:
1P
0J
0G
0H
1K
1Q
1E
1C
0B
1>
1@
0A
0,
1+
1)
#900000
0%
1(
1'
1"
0#
1&
1=
1<
1;
0:
08
17
1L
0I
0P
1M
1J
1G
1H
0Q
0E
1B
0>
1A
1,
0)
