1ano/2 semestre/LSD/Aula4/Parte1/simulation/qsim/FlipFlopD_Demo.msim.vcd
$comment
	File created using the following command:
		vcd file FlipFlopD_Demo.msim.vcd -direction
$end
$date
	Wed Mar 15 10:34:30 2023
$end
$version
	ModelSim Version 2020.1
$end
$timescale
	1ps
$end

$scope module flipflopd_vhd_vec_tst $end
$var wire 1 ! clk $end
$var wire 1 " d $end
$var wire 1 # q $end

$scope module i1 $end
$var wire 1 $ gnd $end
$var wire 1 % vcc $end
$var wire 1 & unknown $end
$var wire 1 ' devoe $end
$var wire 1 ( devclrn $end
$var wire 1 ) devpor $end
$var wire 1 * ww_devoe $end
$var wire 1 + ww_devclrn $end
$var wire 1 , ww_devpor $end
$var wire 1 - ww_clk $end
$var wire 1 . ww_d $end
$var wire 1 / ww_q $end
$var wire 1 0 \q~output_o\ $end
$var wire 1 1 \clk~input_o\ $end
$var wire 1 2 \d~input_o\ $end
$var wire 1 3 \q~reg0_q\ $end
$upscope $end
$upscope $end
$enddefinitions $end
#0
$dumpvars
1!
0"
0#
0$
1%
x&
1'
1(
1)
1*
1+
1,
1-
0.
0/
00
11
02
03
$end
#5000
0!
0-
01
#25000
1!
1-
11
#40000
1"
1.
12
#45000
0!
0-
01
#60000
0"
0.
02
#65000
1!
1-
11
#85000
0!
0-
01
#105000
1!
1-
11
#125000
0!
0-
01
#140000
1"
1.
12
#145000
1!
1-
11
13
10
1/
1#
#160000
0"
0.
02
#165000
0!
0-
01
#180000
1"
1.
12
#185000
1!
1-
11
#200000
0"
0.
02
#205000
0!
0-
01
#220000
1"
1.
12
#225000
1!
1-
11
#245000
0!
0-
01
#260000
0"
0.
02
#265000
1!
1-
11
03
00
0/
0#
#280000
1"
1.
12
#285000
0!
0-
01
#300000
0"
0.
02
#305000
1!
1-
11
#320000
1"
1.
12
#325000
0!
0-
01
#345000
1!
1-
11
13
10
1/
1#
#365000
0!
0-
01
#380000
0"
0.
02
#385000
1!
1-
11
03
00
0/
0#
#400000
1"
1.
12
#405000
0!
0-
01
#420000
0"
0.
02
#425000
1!
1-
11
#445000
0!
0-
01
#465000
1!
1-
11
#485000
0!
0-
01
#500000
1"
1.
12
#505000
1!
1-
11
13
10
1/
1#
#525000
0!
0-
01
#540000
0"
0.
02
#545000
1!
1-
11
03
00
0/
0#
#560000
1"
1.
12
#565000
0!
0-
01
#585000
1!
1-
11
13
10
1/
1#
#605000
0!
0-
01
#620000
0"
0.
02
#625000
1!
1-
11
03
00
0/
0#
#640000
1"
1.
12
#645000
0!
0-
01
#665000
1!
1-
11
13
10
1/
1#
#685000
0!
0-
01
#700000
0"
0.
02
#705000
1!
1-
11
03
00
0/
0#
#720000
1"
1.
12
#725000
0!
0-
01
#745000
1!
1-
11
13
10
1/
1#
#760000
0"
0.
02
#765000
0!
0-
01
#785000
1!
1-
11
03
00
0/
0#
#800000
1"
1.
12
#805000
0!
0-
01
#825000
1!
1-
11
13
10
1/
1#
#845000
0!
0-
01
#860000
0"
0.
02
#865000
1!
1-
11
03
00
0/
0#
#885000
0!
0-
01
#900000
1"
1.
12
#905000
1!
1-
11
13
10
1/
1#
#920000
0"
0.
02
#925000
0!
0-
01
#940000
1"
1.
12
#945000
1!
1-
11
#965000
0!
0-
01
#980000
0"
0.
02
#985000
1!
1-
11
03
00
0/
0#
