1ano/2 semestre/LSD/Aula4/Parte3/simulation/qsim/Counter_Demo.msim.vcd
$comment
	File created using the following command:
		vcd file Counter_Demo.msim.vcd -direction
$end
$date
	Wed Mar 15 12:52:11 2023
$end
$version
	ModelSim Version 2020.1
$end
$timescale
	1ps
$end

$scope module counterdown4_vhd_vec_tst $end
$var wire 1 ! clk $end
$var wire 1 " count [3] $end
$var wire 1 # count [2] $end
$var wire 1 $ count [1] $end
$var wire 1 % count [0] $end

$scope module i1 $end
$var wire 1 & gnd $end
$var wire 1 ' vcc $end
$var wire 1 ( unknown $end
$var wire 1 ) devoe $end
$var wire 1 * devclrn $end
$var wire 1 + devpor $end
$var wire 1 , ww_devoe $end
$var wire 1 - ww_devclrn $end
$var wire 1 . ww_devpor $end
$var wire 1 / ww_clk $end
$var wire 1 0 ww_count [3] $end
$var wire 1 1 ww_count [2] $end
$var wire 1 2 ww_count [1] $end
$var wire 1 3 ww_count [0] $end
$var wire 1 4 \count[0]~output_o\ $end
$var wire 1 5 \count[1]~output_o\ $end
$var wire 1 6 \count[2]~output_o\ $end
$var wire 1 7 \count[3]~output_o\ $end
$var wire 1 8 \clk~input_o\ $end
$var wire 1 9 \s_count[0]~0_combout\ $end
$var wire 1 : \Add0~0_combout\ $end
$var wire 1 ; \Add0~1_combout\ $end
$var wire 1 < \Add0~2_combout\ $end
$var wire 1 = s_count [3] $end
$var wire 1 > s_count [2] $end
$var wire 1 ? s_count [1] $end
$var wire 1 @ s_count [0] $end
$upscope $end
$upscope $end
$enddefinitions $end
#0
$dumpvars
1!
0&
1'
x(
1)
1*
1+
1,
1-
1.
1/
04
05
06
07
18
19
1:
1;
1<
00
01
02
03
0=
0>
0?
0@
0"
0#
0$
0%
$end
#5000
0!
0/
08
#25000
1!
1/
18
1@
1?
1>
1=
09
17
16
15
14
10
11
12
13
1%
1$
1#
1"
#45000
0!
0/
08
#65000
1!
1/
18
0@
19
0:
04
03
0%
#85000
0!
0/
08
#105000
1!
1/
18
1@
0?
09
05
14
02
13
1%
0$
#125000
0!
0/
08
#145000
1!
1/
18
0@
19
1:
0;
04
03
0%
#165000
0!
0/
08
#185000
1!
1/
18
1@
1?
0>
09
06
15
14
01
12
13
1%
1$
0#
#205000
0!
0/
08
#225000
1!
1/
18
0@
19
0:
04
03
0%
#245000
0!
0/
08
#265000
1!
1/
18
1@
0?
09
05
14
02
13
1%
0$
#285000
0!
0/
08
#305000
1!
1/
18
0@
19
1:
1;
0<
04
03
0%
#325000
0!
0/
08
#345000
1!
1/
18
1@
1?
1>
0=
09
07
16
15
14
00
11
12
13
1%
1$
1#
0"
#365000
0!
0/
08
#385000
1!
1/
18
0@
19
0:
04
03
0%
#405000
0!
0/
08
#425000
1!
1/
18
1@
0?
09
05
14
02
13
1%
0$
#445000
0!
0/
08
#465000
1!
1/
18
0@
19
1:
0;
04
03
0%
#485000
0!
0/
08
#505000
1!
1/
18
1@
1?
0>
09
06
15
14
01
12
13
1%
1$
0#
#525000
0!
0/
08
#545000
1!
1/
18
0@
19
0:
04
03
0%
#565000
0!
0/
08
#585000
1!
1/
18
1@
0?
09
05
14
02
13
1%
0$
#605000
0!
0/
08
#625000
1!
1/
18
0@
19
1:
1;
1<
04
03
0%
#645000
0!
0/
08
#665000
1!
1/
18
1@
1?
1>
1=
09
17
16
15
14
10
11
12
13
1%
1$
1#
1"
#685000
0!
0/
08
#705000
1!
1/
18
0@
19
0:
04
03
0%
#725000
0!
0/
08
#745000
1!
1/
18
1@
0?
09
05
14
02
13
1%
0$
#765000
0!
0/
08
#785000
1!
1/
18
0@
19
1:
0;
04
03
0%
#805000
0!
0/
08
#825000
1!
1/
18
1@
1?
0>
09
06
15
14
01
12
13
1%
1$
0#
#845000
0!
0/
08
#865000
1!
1/
18
0@
19
0:
04
03
0%
#885000
0!
0/
08
#905000
1!
1/
18
1@
0?
09
05
14
02
13
1%
0$
#925000
0!
0/
08
#945000
1!
1/
18
0@
19
1:
1;
0<
04
03
0%
#965000
0!
0/
08
#985000
1!
1/
18
1@
1?
1>
0=
09
07
16
15
14
00
11
12
13
1%
1$
1#
0"
