1ano/2 semestre/LSD/Aula3/Parte1/simulation/qsim/AdderDemo.msim.vcd
$comment
	File created using the following command:
		vcd file AdderDemo.msim.vcd -direction
$end
$date
	Wed Apr 05 15:49:56 2023
$end
$version
	ModelSim Version 2020.1
$end
$timescale
	1ps
$end

$scope module addsub4_vhd_vec_tst $end
$var wire 1 ! a [3] $end
$var wire 1 " a [2] $end
$var wire 1 # a [1] $end
$var wire 1 $ a [0] $end
$var wire 1 % b [3] $end
$var wire 1 & b [2] $end
$var wire 1 ' b [1] $end
$var wire 1 ( b [0] $end
$var wire 1 ) cout $end
$var wire 1 * s [3] $end
$var wire 1 + s [2] $end
$var wire 1 , s [1] $end
$var wire 1 - s [0] $end
$var wire 1 . sub $end

$scope module i1 $end
$var wire 1 / gnd $end
$var wire 1 0 vcc $end
$var wire 1 1 unknown $end
$var wire 1 2 devoe $end
$var wire 1 3 devclrn $end
$var wire 1 4 devpor $end
$var wire 1 5 ww_devoe $end
$var wire 1 6 ww_devclrn $end
$var wire 1 7 ww_devpor $end
$var wire 1 8 ww_sub $end
$var wire 1 9 ww_a [3] $end
$var wire 1 : ww_a [2] $end
$var wire 1 ; ww_a [1] $end
$var wire 1 < ww_a [0] $end
$var wire 1 = ww_b [3] $end
$var wire 1 > ww_b [2] $end
$var wire 1 ? ww_b [1] $end
$var wire 1 @ ww_b [0] $end
$var wire 1 A ww_cout $end
$var wire 1 B ww_s [3] $end
$var wire 1 C ww_s [2] $end
$var wire 1 D ww_s [1] $end
$var wire 1 E ww_s [0] $end
$var wire 1 F \cout~output_o\ $end
$var wire 1 G \s[0]~output_o\ $end
$var wire 1 H \s[1]~output_o\ $end
$var wire 1 I \s[2]~output_o\ $end
$var wire 1 J \s[3]~output_o\ $end
$var wire 1 K \sub~input_o\ $end
$var wire 1 L \b[3]~input_o\ $end
$var wire 1 M \a[3]~input_o\ $end
$var wire 1 N \b[2]~input_o\ $end
$var wire 1 O \a[2]~input_o\ $end
$var wire 1 P \b[1]~input_o\ $end
$var wire 1 Q \a[1]~input_o\ $end
$var wire 1 R \a[0]~input_o\ $end
$var wire 1 S \b[0]~input_o\ $end
$var wire 1 T \AddSub4|bit0|cout~0_combout\ $end
$var wire 1 U \AddSub4|bit1|cout~0_combout\ $end
$var wire 1 V \AddSub4|bit2|cout~0_combout\ $end
$var wire 1 W \cout~0_combout\ $end
$var wire 1 X \AddSub4|bit0|s~0_combout\ $end
$var wire 1 Y \AddSub4|bit1|s~combout\ $end
$var wire 1 Z \AddSub4|bit2|s~0_combout\ $end
$var wire 1 [ \AddSub4|bit3|s~0_combout\ $end
$upscope $end
$upscope $end
$enddefinitions $end
#0
$dumpvars
0)
0.
0/
10
x1
12
13
14
15
16
17
08
0A
0F
1G
0H
1I
1J
0K
0L
1M
1N
0O
0P
0Q
0R
1S
0T
0U
0V
0W
1X
0Y
1Z
1[
1!
0"
0#
0$
0%
1&
0'
1(
1*
1+
0,
1-
19
0:
0;
0<
0=
1>
0?
1@
1B
1C
0D
1E
$end
#30000
0!
09
0M
0[
0J
0B
0*
#35000
1%
0(
0@
1=
1L
0S
0X
1[
1J
0G
1B
0E
0-
1*
#60000
1!
1"
1#
1$
1<
1;
1:
19
1M
1O
1Q
1R
1X
1Y
1V
0Z
1W
0[
1[
0J
1F
0I
1H
1G
0B
1A
0C
1D
1E
1J
1-
1,
0+
0*
1)
1B
1*
#70000
1(
0&
1@
0>
0N
1S
1T
0X
0V
1Z
0[
1U
0Y
1V
0Z
1I
0G
1[
1C
0E
0H
0J
0-
1+
0D
0B
0I
0,
0*
0C
1J
0+
1B
1*
#80000
1.
18
1K
0W
1Y
1Z
0[
0J
1I
1H
0F
0B
1C
1D
0A
1,
1+
0*
0)
#90000
0"
0$
0<
0:
0O
0R
0T
1X
0Z
0Y
0I
1G
0C
1E
0H
1-
0+
0D
0,
#100000
0.
08
0K
0U
0V
1W
1Y
1Z
1[
0[
0Z
1J
1I
1H
1F
1B
1C
1D
1A
0I
0J
1,
1+
1*
1)
0C
0B
0+
0*
#105000
1&
0%
1'
1?
1>
0=
0L
1N
1P
1U
0Y
1Z
0W
1[
1V
0Z
1W
0[
1J
0F
1I
0H
1B
0A
1C
0D
0I
0,
1+
1*
0)
0C
0J
1F
0+
0B
1A
0*
1)
#120000
1$
0!
1<
09
0M
1R
1T
0X
0W
1[
1Y
1J
0F
0G
1B
0A
0E
1H
0-
1*
0)
1D
1,
#140000
0'
1.
0(
0@
0?
18
1K
0P
0S
1X
0V
1Z
0[
1W
1[
0J
1I
1G
0B
1C
1E
1J
1F
1-
1+
0*
1B
1A
1*
1)
#160000
0.
08
0K
0T
1V
0W
0Y
0Z
0[
1[
0U
1Y
0V
1Z
0J
0I
0H
0F
0[
0B
0C
0D
0A
1H
1J
0,
0+
0*
0)
1D
1B
1I
1,
1*
1C
0J
1+
0B
0*
#180000
0#
0;
0Q
0Y
0H
0D
0,
#200000
1.
18
1K
1T
1W
1Y
0Z
1[
1U
0Y
1Z
1J
0I
1H
1F
1B
0C
1D
1A
0H
1,
0+
1*
1)
0D
1I
0,
1C
1+
#210000
1'
1(
0$
1%
1"
1@
1?
1=
0<
1:
1O
0R
1L
1P
1S
0U
1Y
0[
0T
1V
0Z
1[
0Y
0V
1Z
0[
0I
0J
1H
0C
0B
1D
1I
0H
1J
1,
0+
0*
1C
0D
1B
0J
0,
1+
1*
0B
0*
#240000
0"
0.
1#
1!
1;
0:
19
08
0K
1M
0O
1Q
1U
1V
0Z
1[
0I
0C
1J
0+
1B
1*
#245000
0%
0=
0L
0[
0J
0B
0*
#260000
1.
18
1K
0U
0V
0W
1Y
1Z
1[
0[
0Z
1J
1I
1H
0F
1B
1C
1D
0A
0I
0J
1,
1+
1*
0)
0C
0B
0+
0*
#270000
1"
0#
0;
1:
1O
0Q
0Y
1Z
1I
0H
1C
0D
0,
1+
#280000
0.
0&
08
0>
0N
0K
1Y
1[
1J
1H
1B
1D
1,
1*
#300000
1.
0"
1#
0!
18
1;
0:
09
0M
0O
1Q
1K
1W
1F
1A
1)
#315000
1&
0'
0?
1>
1N
0P
1U
0Y
0Z
1Z
0I
0H
0C
0D
1I
0,
0+
1C
1+
#320000
0.
08
0K
0U
1V
0W
1Y
0Z
0[
1[
0V
1Z
0[
0J
0I
1H
0F
0B
0C
1D
0A
1I
1J
1,
0+
0*
0)
1C
1B
0J
1+
1*
0B
0*
#330000
0#
1!
1$
1<
0;
19
1M
0Q
1R
1T
0X
0Y
1[
1Y
1J
0H
0G
1B
0D
0E
1H
0-
0,
1*
1D
1,
#350000
0&
0>
0N
0Z
0I
0C
0+
#360000
0!
0$
1"
0<
1:
09
0M
1O
0R
0T
1X
1Z
0[
0Y
0J
1I
1G
0B
1C
1E
0H
1-
1+
0*
0D
0,
#385000
1&
1'
1?
1>
1N
1P
1Y
1V
0Z
1[
0I
1H
0C
1D
1J
1,
0+
1B
1*
#390000
1!
1$
1<
19
1M
1R
1T
0X
1W
0[
1U
0Y
1Z
0J
1F
0G
0B
1A
0E
0H
0-
0*
1)
0D
1I
0,
1C
1+
#400000
1.
18
1K
0U
0W
1Y
0Z
1[
0V
1Z
0[
1J
0I
1H
0F
1B
0C
1D
0A
1I
1,
0+
1*
0)
1C
0J
1+
0B
0*
#420000
0'
1#
1%
0?
1=
1;
1Q
1L
0P
1W
1[
1U
1V
0Z
0W
0[
1J
1F
1B
1A
0I
1*
1)
0C
0J
0F
0+
0B
0A
0*
0)
#450000
0$
0<
0R
0T
1X
0Y
1G
1E
0H
1-
0D
0,
#455000
1'
0&
0(
0@
1?
0>
0N
1P
0S
1T
0X
0U
1Y
1Z
0Z
1U
0Y
1Z
1I
1H
0G
1C
1D
0E
0H
0I
0-
1,
1+
0D
0C
1I
0,
0+
1C
1+
#480000
1$
1<
1R
1X
1G
1E
1-
#490000
0'
0?
0P
1Y
1H
1D
1,
#510000
0$
0#
0!
0<
0;
09
0M
0Q
0R
0X
0Y
1W
1[
1J
1F
0H
0G
1B
1A
0D
0E
0-
0,
1*
1)
#520000
0.
08
0K
0T
0U
1Y
0Z
0[
0V
1Z
0Y
0W
1[
0J
0I
1H
0B
0C
1D
0H
1I
1,
0+
0*
0D
1C
1J
0F
0,
1+
1B
0A
1*
0)
#525000
1(
1@
1S
1X
1G
1E
1-
#540000
1.
1#
0"
18
1;
0:
0O
1Q
1K
1W
0[
1U
1V
0Z
1[
0J
1F
0B
1A
0I
0*
1)
0C
1J
0+
1B
1*
#570000
1!
19
1M
0W
0[
0J
0F
0B
0A
0*
0)
#580000
0.
08
0K
0U
0V
1W
1Y
1Z
1[
0[
0Z
1J
1I
1H
1F
1B
1C
1D
1A
0I
0J
1,
1+
1*
1)
0C
0B
0+
0*
#595000
1'
0%
1?
0=
0L
1P
1U
0Y
0W
1[
1Z
1J
0F
0H
1B
0A
0D
1I
0,
1*
0)
1C
1+
#600000
1.
0!
0#
1$
18
1<
0;
09
0M
0Q
1R
1K
1V
0Z
1T
0X
0U
1W
0V
1Z
1Y
0W
0[
1W
1[
1F
0G
0I
1A
0E
0C
0J
0F
1H
1I
1)
0-
0+
0B
0A
1D
1C
1J
1F
1,
1+
0*
0)
1B
1A
1*
1)
#630000
0'
1%
1"
0(
0@
0?
1=
1:
1O
1L
0P
0S
1X
1U
0Y
0[
1V
0Z
1[
1Z
0I
0J
0H
1G
0C
0B
0D
1E
1I
1J
1-
0,
0+
0*
1C
1B
1+
1*
#660000
0.
1#
08
1;
1Q
0K
0T
0Z
0[
0U
1Y
0V
1Z
0J
0I
0W
1[
0B
0C
1H
0+
0*
1D
1I
1,
1C
1J
0F
1+
1B
0A
1*
0)
#665000
0%
1(
1@
0=
0L
1S
1T
0X
0[
1U
0Y
1V
0Z
0J
0G
1[
0B
0E
0H
0-
0*
0D
0I
0,
0C
1J
0+
1B
1*
#680000
1.
18
1K
1Y
1Z
0[
0J
1I
1H
0B
1C
1D
1,
1+
0*
#690000
0#
0"
0$
0<
0;
0:
0O
0Q
0R
0T
1X
0Y
0Z
0U
1Y
0V
1Z
0I
0H
1G
1W
1[
0C
0D
1E
1H
1-
0,
0+
1D
1I
1,
1C
1J
1F
1+
1B
1A
1*
1)
#700000
0.
0(
1&
08
0@
1>
1N
0S
0K
0W
0Y
0[
0X
0G
0J
0H
0F
0E
0B
0D
0A
0-
0,
0*
0)
#720000
1.
1#
1"
18
1;
1:
1O
1Q
1K
1T
1W
1[
1U
1V
0Z
1Y
0W
0[
1J
1F
1B
1A
1H
0I
1*
1)
1D
0C
0J
0F
1,
0+
0B
0A
0*
0)
#735000
1(
0&
1%
1@
0>
1=
1L
0N
1S
0T
1X
1Z
1W
1[
0Y
1J
1F
1I
1G
1B
1A
1C
1E
0H
1-
1+
1*
1)
0D
0,
#740000
0.
08
0K
0U
1Y
0Z
0[
0V
1Z
0W
1[
0J
0I
1H
0B
0C
1D
1I
1,
0+
0*
1C
1J
0F
1+
1B
0A
1*
0)
#750000
1$
1!
1<
19
1M
1R
1T
0X
1W
0[
1U
0Y
1V
0Z
0J
1F
0G
1[
0B
1A
0E
0H
0-
0*
1)
0D
0I
0,
0C
1J
0+
1B
1*
#770000
0(
0@
0S
0T
1X
0U
1Y
0V
1Z
1G
0[
1E
1H
1-
1D
1I
1,
1C
0J
1+
0B
0*
#780000
0!
0"
0:
09
0M
0O
0Z
0W
1[
1J
0F
0I
1B
0A
0C
0+
1*
0)
#800000
1.
18
1K
1T
1U
1W
0Y
1Z
0[
1V
0Z
1Y
1[
0J
1I
0H
1F
0B
1C
0D
1A
1H
0I
0,
1+
0*
1)
1D
0C
1J
1,
0+
1B
1*
#805000
1(
1&
0%
1'
1@
1?
1>
0=
0L
1N
1P
1S
0X
0Y
0V
1Z
0W
0[
1W
1[
0J
0F
1I
0H
0G
0B
0A
1C
0D
0E
1J
1F
0-
0,
1+
0*
0)
1B
1A
1*
1)
#810000
0$
0<
0R
0T
1X
0U
1Y
0Z
1G
1E
1H
1-
1D
0I
1,
0C
0+
#820000
0.
08
0K
1U
0W
0Y
1Z
0[
1V
0Z
1[
0J
1I
0H
0F
0B
1C
0D
0A
0I
0,
1+
0*
0)
0C
1J
0+
1B
1*
#840000
1.
1!
18
19
1M
1K
0U
0V
1Y
1Z
0[
0Z
1I
1H
1C
1D
0I
0J
1,
1+
0C
0B
0+
0*
#870000
0!
1"
0#
0;
1:
09
0M
1O
0Q
0Y
1Z
1W
1[
1J
1F
1I
0H
1B
1A
1C
0D
0,
1+
1*
1)
#875000
0(
0'
0@
0?
0P
0S
1T
0X
1Y
1U
0Y
1V
0Z
1H
0G
0W
0[
1D
0E
0H
0-
1,
0D
0I
0,
0C
0J
0F
0+
0B
0A
0*
0)
#880000
0.
08
0K
0T
0U
1Y
1Z
1[
0Z
0Y
1J
1I
1H
1B
1C
1D
0H
0I
1,
1+
1*
0D
0C
0,
0+
#900000
1.
1!
1#
1$
18
1<
1;
19
1M
1Q
1R
1K
0V
1Z
1T
1X
1U
1V
0Z
1Y
0[
1[
1G
1I
1E
1C
0J
1H
0I
1-
1+
0B
1D
0C
1J
1,
0+
0*
1B
1*
#910000
1(
1%
1@
1=
1L
1S
0X
0[
0J
0G
0B
0E
0-
0*
#930000
0#
0$
0"
0<
0;
0:
0O
0Q
0R
0T
1X
0Y
0V
1Z
1W
1[
0U
1Y
0Z
1I
0H
1G
1C
0D
1E
1H
1J
1F
1-
0,
1+
1D
1B
1A
0I
1,
1*
1)
0C
0+
#940000
0.
08
0K
0Y
1Z
0[
0J
1I
0H
0B
1C
0D
0,
1+
0*
#945000
1'
0&
1?
0>
0N
1P
1Y
0Z
0I
1H
0C
1D
1,
0+
#960000
1.
1$
0!
18
1<
09
0M
1R
1K
0Y
1Z
1T
0X
1Y
0G
1I
0H
0E
1C
0D
1H
0-
0,
1+
1D
1,
#980000
0'
0%
0?
0=
0L
0P
1U
0Y
1[
1V
0Z
0W
0[
1J
0H
1B
0D
0I
0,
1*
0C
0J
0F
0+
0B
0A
0*
0)
#990000
0$
1"
0<
1:
1O
0R
0T
1X
1Z
0U
1Y
0Z
1I
1G
1C
1E
1H
1-
1+
1D
0I
1,
0C
0+
