1ano/2 semestre/LSD/Aula10/Parte2/simulation/qsim/RAM_1P_Demo.msim.vcd
$comment
	File created using the following command:
		vcd file RAM_1P_Demo.msim.vcd -direction
$end
$date
	Sat Jun 10 16:40:07 2023
$end
$version
	ModelSim Version 2020.1
$end
$timescale
	1ps
$end

$scope module test_exmp_vhd_vec_tst $end
$var wire 1 ! clk $end
$var wire 1 " valor_in $end
$var wire 1 # valor_out $end

$scope module i1 $end
$var wire 1 $ gnd $end
$var wire 1 % vcc $end
$var wire 1 & unknown $end
$var wire 1 ' devoe $end
$var wire 1 ( devclrn $end
$var wire 1 ) devpor $end
$var wire 1 * ww_devoe $end
$var wire 1 + ww_devclrn $end
$var wire 1 , ww_devpor $end
$var wire 1 - ww_clk $end
$var wire 1 . ww_valor_in $end
$var wire 1 / ww_valor_out $end
$var wire 1 0 \valor_out~output_o\ $end
$var wire 1 1 \clk~input_o\ $end
$var wire 1 2 \valor_in~input_o\ $end
$var wire 1 3 \B~q\ $end
$var wire 1 4 \valor_out~reg0_q\ $end
$upscope $end
$upscope $end
$enddefinitions $end
#0
$dumpvars
0!
0"
0#
0$
1%
x&
1'
1(
1)
1*
1+
1,
0-
0.
0/
00
01
02
03
04
$end
#15000
1!
1-
11
#20000
1"
1.
12
#30000
0!
0-
01
#45000
1!
1-
11
13
#60000
0!
0-
01
#75000
1!
1-
11
14
10
1/
1#
#90000
0!
0-
01
#105000
1!
1-
11
#120000
0!
0-
01
#135000
1!
1-
11
#150000
0!
0-
01
#165000
1!
1-
11
#180000
0!
0-
01
#195000
1!
1-
11
#210000
0!
0-
01
#225000
1!
1-
11
#240000
0!
0-
01
#255000
1!
1-
11
#270000
0!
0-
01
#285000
1!
1-
11
#300000
0!
0-
01
#315000
1!
1-
11
#330000
0!
0-
01
#345000
1!
1-
11
#360000
0!
0-
01
#375000
1!
1-
11
#390000
0!
0-
01
#405000
1!
1-
11
#420000
0!
0-
01
#435000
1!
1-
11
#450000
0!
0-
01
#465000
1!
1-
11
#480000
0!
0-
01
#495000
1!
1-
11
#510000
0!
0-
01
#525000
1!
1-
11
#540000
0!
0-
01
#555000
1!
1-
11
#570000
0!
0-
01
#585000
1!
1-
11
#600000
0!
0-
01
#615000
1!
1-
11
#630000
0!
0-
01
#645000
1!
1-
11
#660000
0!
0-
01
#675000
1!
1-
11
#690000
0!
0-
01
#705000
1!
1-
11
#720000
0!
0-
01
#735000
1!
1-
11
#750000
0!
0-
01
#765000
1!
1-
11
#780000
0!
0-
01
#795000
1!
1-
11
#810000
0!
0-
01
#825000
1!
1-
11
#840000
0!
0-
01
#855000
1!
1-
11
#870000
0!
0-
01
#885000
1!
1-
11
#900000
0!
0-
01
#915000
1!
1-
11
#930000
0!
0-
01
#945000
1!
1-
11
#960000
0!
0-
01
#975000
1!
1-
11
#990000
0!
0-
01
